<?xml version="1.0" encoding="utf-8"?>
<!-- Generator: Adobe Illustrator 16.0.0, SVG Export Plug-In . SVG Version: 6.00 Build 0)  -->
<!DOCTYPE svg PUBLIC "-//W3C//DTD SVG 1.1//EN" "http://www.w3.org/Graphics/SVG/1.1/DTD/svg11.dtd">
<svg version="1.1" id="Layer_1" xmlns="http://www.w3.org/2000/svg" xmlns:xlink="http://www.w3.org/1999/xlink" x="0px" y="0px"
	 width="576px" height="432px" viewBox="0 0 576 432" enable-background="new 0 0 576 432" xml:space="preserve">
<g>
	<defs>
		<rect id="SVGID_1_" x="72" y="43.2" width="446.4" height="345.6"/>
	</defs>
	<clipPath id="SVGID_2_">
		<use xlink:href="#SVGID_1_"  overflow="visible"/>
	</clipPath>
	
		<polyline clip-path="url(#SVGID_2_)" fill="none" stroke="#000000" stroke-width="2" stroke-linejoin="round" stroke-miterlimit="10" stroke-dasharray="6,6" points="
		72,186.449 220.8,191.314 369.6,209.544 518.4,162.693 	"/>
	<g clip-path="url(#SVGID_2_)">
		<defs>
			<rect id="SVGID_3_" x="65.75" y="180.199" width="12.5" height="12.5"/>
		</defs>
		<clipPath id="SVGID_4_">
			<use xlink:href="#SVGID_3_"  overflow="visible"/>
		</clipPath>
		<path clip-path="url(#SVGID_4_)" d="M72,192.449c1.591,0,3.118-0.632,4.243-1.757c1.125-1.125,1.757-2.651,1.757-4.243
			s-0.632-3.118-1.757-4.243s-2.651-1.757-4.243-1.757s-3.118,0.632-4.243,1.757S66,184.857,66,186.449s0.632,3.117,1.757,4.243
			C68.882,191.816,70.409,192.449,72,192.449z"/>
		
			<path clip-path="url(#SVGID_4_)" fill="none" stroke="#000000" stroke-width="0.5" stroke-linejoin="round" stroke-miterlimit="10" d="
			M72,192.449c1.591,0,3.118-0.632,4.243-1.757c1.125-1.125,1.757-2.651,1.757-4.243s-0.632-3.118-1.757-4.243
			s-2.651-1.757-4.243-1.757s-3.118,0.632-4.243,1.757S66,184.857,66,186.449s0.632,3.117,1.757,4.243
			C68.882,191.816,70.409,192.449,72,192.449z"/>
	</g>
	<g clip-path="url(#SVGID_2_)">
		<defs>
			<rect id="SVGID_5_" x="214.55" y="185.064" width="12.5" height="12.5"/>
		</defs>
		<clipPath id="SVGID_6_">
			<use xlink:href="#SVGID_5_"  overflow="visible"/>
		</clipPath>
		<path clip-path="url(#SVGID_6_)" d="M220.8,197.314c1.591,0,3.118-0.632,4.243-1.757c1.125-1.125,1.757-2.652,1.757-4.243
			c0-1.591-0.632-3.118-1.757-4.243c-1.125-1.125-2.651-1.757-4.243-1.757c-1.591,0-3.117,0.632-4.243,1.757
			c-1.125,1.125-1.757,2.651-1.757,4.243c0,1.591,0.632,3.117,1.757,4.243C217.683,196.682,219.209,197.314,220.8,197.314z"/>
		
			<path clip-path="url(#SVGID_6_)" fill="none" stroke="#000000" stroke-width="0.5" stroke-linejoin="round" stroke-miterlimit="10" d="
			M220.8,197.314c1.591,0,3.118-0.632,4.243-1.757c1.125-1.125,1.757-2.652,1.757-4.243c0-1.591-0.632-3.118-1.757-4.243
			c-1.125-1.125-2.651-1.757-4.243-1.757c-1.591,0-3.117,0.632-4.243,1.757c-1.125,1.125-1.757,2.651-1.757,4.243
			c0,1.591,0.632,3.117,1.757,4.243C217.683,196.682,219.209,197.314,220.8,197.314z"/>
	</g>
	<g clip-path="url(#SVGID_2_)">
		<defs>
			<rect id="SVGID_7_" x="363.35" y="203.294" width="12.5" height="12.5"/>
		</defs>
		<clipPath id="SVGID_8_">
			<use xlink:href="#SVGID_7_"  overflow="visible"/>
		</clipPath>
		<path clip-path="url(#SVGID_8_)" d="M369.6,215.544c1.592,0,3.118-0.632,4.243-1.758c1.125-1.125,1.757-2.651,1.757-4.242
			c0-1.591-0.632-3.118-1.757-4.243c-1.125-1.125-2.651-1.757-4.243-1.757c-1.591,0-3.117,0.632-4.242,1.757
			c-1.125,1.125-1.758,2.651-1.758,4.243c0,1.591,0.633,3.117,1.758,4.242C366.482,214.912,368.009,215.544,369.6,215.544z"/>
		
			<path clip-path="url(#SVGID_8_)" fill="none" stroke="#000000" stroke-width="0.5" stroke-linejoin="round" stroke-miterlimit="10" d="
			M369.6,215.544c1.592,0,3.118-0.632,4.243-1.758c1.125-1.125,1.757-2.651,1.757-4.242c0-1.591-0.632-3.118-1.757-4.243
			c-1.125-1.125-2.651-1.757-4.243-1.757c-1.591,0-3.117,0.632-4.242,1.757c-1.125,1.125-1.758,2.651-1.758,4.243
			c0,1.591,0.633,3.117,1.758,4.242C366.482,214.912,368.009,215.544,369.6,215.544z"/>
	</g>
	<g clip-path="url(#SVGID_2_)">
		<defs>
			<rect id="SVGID_9_" x="512.15" y="156.443" width="12.5" height="12.5"/>
		</defs>
		<clipPath id="SVGID_10_">
			<use xlink:href="#SVGID_9_"  overflow="visible"/>
		</clipPath>
		<path clip-path="url(#SVGID_10_)" d="M518.4,168.693c1.591,0,3.117-0.632,4.242-1.757c1.125-1.125,1.758-2.652,1.758-4.243
			c0-1.591-0.633-3.118-1.758-4.243c-1.125-1.125-2.651-1.757-4.242-1.757c-1.592,0-3.118,0.632-4.243,1.757
			c-1.125,1.125-1.757,2.651-1.757,4.243c0,1.591,0.632,3.117,1.757,4.243C515.282,168.061,516.809,168.693,518.4,168.693z"/>
		
			<path clip-path="url(#SVGID_10_)" fill="none" stroke="#000000" stroke-width="0.5" stroke-linejoin="round" stroke-miterlimit="10" d="
			M518.4,168.693c1.591,0,3.117-0.632,4.242-1.757c1.125-1.125,1.758-2.652,1.758-4.243c0-1.591-0.633-3.118-1.758-4.243
			c-1.125-1.125-2.651-1.757-4.242-1.757c-1.592,0-3.118,0.632-4.243,1.757c-1.125,1.125-1.757,2.651-1.757,4.243
			c0,1.591,0.632,3.117,1.757,4.243C515.282,168.061,516.809,168.693,518.4,168.693z"/>
	</g>
</g>
<g>
	<defs>
		<rect id="SVGID_11_" x="72" y="43.2" width="446.4" height="345.6"/>
	</defs>
	<clipPath id="SVGID_12_">
		<use xlink:href="#SVGID_11_"  overflow="visible"/>
	</clipPath>
	
		<polyline clip-path="url(#SVGID_12_)" fill="none" stroke="#000000" stroke-width="2" stroke-linecap="square" stroke-linejoin="round" stroke-miterlimit="10" points="
		72,190.003 220.8,191.314 369.6,193.495 518.4,84.132 	"/>
	<g clip-path="url(#SVGID_12_)">
		<defs>
			<rect id="SVGID_13_" x="65.75" y="183.753" width="12.5" height="12.5"/>
		</defs>
		<clipPath id="SVGID_14_">
			<use xlink:href="#SVGID_13_"  overflow="visible"/>
		</clipPath>
		<path clip-path="url(#SVGID_14_)" d="M72,196.003c1.591,0,3.118-0.632,4.243-1.757S78,191.595,78,190.003
			s-0.632-3.118-1.757-4.243s-2.651-1.757-4.243-1.757s-3.118,0.632-4.243,1.757S66,188.412,66,190.003s0.632,3.118,1.757,4.243
			S70.409,196.003,72,196.003z"/>
		
			<path clip-path="url(#SVGID_14_)" fill="none" stroke="#000000" stroke-width="0.5" stroke-linejoin="round" stroke-miterlimit="10" d="
			M72,196.003c1.591,0,3.118-0.632,4.243-1.757S78,191.595,78,190.003s-0.632-3.118-1.757-4.243s-2.651-1.757-4.243-1.757
			s-3.118,0.632-4.243,1.757S66,188.412,66,190.003s0.632,3.118,1.757,4.243S70.409,196.003,72,196.003z"/>
	</g>
	<g clip-path="url(#SVGID_12_)">
		<defs>
			<rect id="SVGID_15_" x="214.55" y="185.064" width="12.5" height="12.5"/>
		</defs>
		<clipPath id="SVGID_16_">
			<use xlink:href="#SVGID_15_"  overflow="visible"/>
		</clipPath>
		<path clip-path="url(#SVGID_16_)" d="M220.8,197.314c1.591,0,3.118-0.632,4.243-1.757c1.125-1.125,1.757-2.652,1.757-4.243
			c0-1.591-0.632-3.118-1.757-4.243c-1.125-1.125-2.651-1.757-4.243-1.757c-1.591,0-3.117,0.632-4.243,1.757
			c-1.125,1.125-1.757,2.651-1.757,4.243c0,1.591,0.632,3.117,1.757,4.243C217.683,196.682,219.209,197.314,220.8,197.314z"/>
		
			<path clip-path="url(#SVGID_16_)" fill="none" stroke="#000000" stroke-width="0.5" stroke-linejoin="round" stroke-miterlimit="10" d="
			M220.8,197.314c1.591,0,3.118-0.632,4.243-1.757c1.125-1.125,1.757-2.652,1.757-4.243c0-1.591-0.632-3.118-1.757-4.243
			c-1.125-1.125-2.651-1.757-4.243-1.757c-1.591,0-3.117,0.632-4.243,1.757c-1.125,1.125-1.757,2.651-1.757,4.243
			c0,1.591,0.632,3.117,1.757,4.243C217.683,196.682,219.209,197.314,220.8,197.314z"/>
	</g>
	<g clip-path="url(#SVGID_12_)">
		<defs>
			<rect id="SVGID_17_" x="363.35" y="187.245" width="12.5" height="12.5"/>
		</defs>
		<clipPath id="SVGID_18_">
			<use xlink:href="#SVGID_17_"  overflow="visible"/>
		</clipPath>
		<path clip-path="url(#SVGID_18_)" d="M369.6,199.495c1.592,0,3.118-0.632,4.243-1.757c1.125-1.125,1.757-2.651,1.757-4.243
			c0-1.591-0.632-3.117-1.757-4.243c-1.125-1.125-2.651-1.757-4.243-1.757c-1.591,0-3.117,0.632-4.242,1.757
			c-1.125,1.125-1.758,2.652-1.758,4.243c0,1.591,0.633,3.118,1.758,4.243C366.482,198.863,368.009,199.495,369.6,199.495z"/>
		
			<path clip-path="url(#SVGID_18_)" fill="none" stroke="#000000" stroke-width="0.5" stroke-linejoin="round" stroke-miterlimit="10" d="
			M369.6,199.495c1.592,0,3.118-0.632,4.243-1.757c1.125-1.125,1.757-2.651,1.757-4.243c0-1.591-0.632-3.117-1.757-4.243
			c-1.125-1.125-2.651-1.757-4.243-1.757c-1.591,0-3.117,0.632-4.242,1.757c-1.125,1.125-1.758,2.652-1.758,4.243
			c0,1.591,0.633,3.118,1.758,4.243C366.482,198.863,368.009,199.495,369.6,199.495z"/>
	</g>
	<g clip-path="url(#SVGID_12_)">
		<defs>
			<rect id="SVGID_19_" x="512.15" y="77.882" width="12.5" height="12.5"/>
		</defs>
		<clipPath id="SVGID_20_">
			<use xlink:href="#SVGID_19_"  overflow="visible"/>
		</clipPath>
		<path clip-path="url(#SVGID_20_)" d="M518.4,90.132c1.591,0,3.117-0.632,4.242-1.757s1.758-2.651,1.758-4.243
			s-0.633-3.117-1.758-4.243c-1.125-1.125-2.651-1.757-4.242-1.757c-1.592,0-3.118,0.632-4.243,1.757
			c-1.125,1.125-1.757,2.651-1.757,4.243s0.632,3.118,1.757,4.243S516.809,90.132,518.4,90.132z"/>
		
			<path clip-path="url(#SVGID_20_)" fill="none" stroke="#000000" stroke-width="0.5" stroke-linejoin="round" stroke-miterlimit="10" d="
			M518.4,90.132c1.591,0,3.117-0.632,4.242-1.757s1.758-2.651,1.758-4.243s-0.633-3.117-1.758-4.243
			c-1.125-1.125-2.651-1.757-4.242-1.757c-1.592,0-3.118,0.632-4.243,1.757c-1.125,1.125-1.757,2.651-1.757,4.243
			s0.632,3.118,1.757,4.243S516.809,90.132,518.4,90.132z"/>
	</g>
</g>
<g>
	<defs>
		<rect id="SVGID_21_" x="72" y="43.2" width="446.4" height="345.6"/>
	</defs>
	<clipPath id="SVGID_22_">
		<use xlink:href="#SVGID_21_"  overflow="visible"/>
	</clipPath>
	
		<polyline clip-path="url(#SVGID_22_)" fill="none" stroke="#000000" stroke-width="2" stroke-linejoin="round" stroke-miterlimit="10" stroke-dasharray="6,6" points="
		72,197.172 220.8,191.314 369.6,197.172 518.4,172.315 	"/>
	<g clip-path="url(#SVGID_22_)">
		<defs>
			<rect id="SVGID_23_" x="65.75" y="190.922" width="12.5" height="12.5"/>
		</defs>
		<clipPath id="SVGID_24_">
			<use xlink:href="#SVGID_23_"  overflow="visible"/>
		</clipPath>
		<polyline clip-path="url(#SVGID_24_)" points="72,191.172 66,203.172 78,203.172 72,191.172 		"/>
		
			<polyline clip-path="url(#SVGID_24_)" fill="none" stroke="#000000" stroke-width="0.5" stroke-linejoin="round" stroke-miterlimit="10" points="
			72,191.172 66,203.172 78,203.172 72,191.172 		"/>
	</g>
	<g clip-path="url(#SVGID_22_)">
		<defs>
			<rect id="SVGID_25_" x="214.55" y="185.064" width="12.5" height="12.5"/>
		</defs>
		<clipPath id="SVGID_26_">
			<use xlink:href="#SVGID_25_"  overflow="visible"/>
		</clipPath>
		<polyline clip-path="url(#SVGID_26_)" points="220.8,185.314 214.8,197.314 226.8,197.314 220.8,185.314 		"/>
		
			<polyline clip-path="url(#SVGID_26_)" fill="none" stroke="#000000" stroke-width="0.5" stroke-linejoin="round" stroke-miterlimit="10" points="
			220.8,185.314 214.8,197.314 226.8,197.314 220.8,185.314 		"/>
	</g>
	<g clip-path="url(#SVGID_22_)">
		<defs>
			<rect id="SVGID_27_" x="363.35" y="190.922" width="12.5" height="12.5"/>
		</defs>
		<clipPath id="SVGID_28_">
			<use xlink:href="#SVGID_27_"  overflow="visible"/>
		</clipPath>
		<polyline clip-path="url(#SVGID_28_)" points="369.6,191.172 363.6,203.172 375.6,203.172 369.6,191.172 		"/>
		
			<polyline clip-path="url(#SVGID_28_)" fill="none" stroke="#000000" stroke-width="0.5" stroke-linejoin="round" stroke-miterlimit="10" points="
			369.6,191.172 363.6,203.172 375.6,203.172 369.6,191.172 		"/>
	</g>
	<g clip-path="url(#SVGID_22_)">
		<defs>
			<rect id="SVGID_29_" x="512.15" y="166.065" width="12.5" height="12.5"/>
		</defs>
		<clipPath id="SVGID_30_">
			<use xlink:href="#SVGID_29_"  overflow="visible"/>
		</clipPath>
		<polyline clip-path="url(#SVGID_30_)" points="518.4,166.315 512.4,178.315 524.4,178.315 518.4,166.315 		"/>
		
			<polyline clip-path="url(#SVGID_30_)" fill="none" stroke="#000000" stroke-width="0.5" stroke-linejoin="round" stroke-miterlimit="10" points="
			518.4,166.315 512.4,178.315 524.4,178.315 518.4,166.315 		"/>
	</g>
</g>
<g>
	<defs>
		<rect id="SVGID_31_" x="72" y="43.2" width="446.4" height="345.6"/>
	</defs>
	<clipPath id="SVGID_32_">
		<use xlink:href="#SVGID_31_"  overflow="visible"/>
	</clipPath>
	
		<polyline clip-path="url(#SVGID_32_)" fill="none" stroke="#000000" stroke-width="2" stroke-linecap="square" stroke-linejoin="round" stroke-miterlimit="10" points="
		72,191.957 220.8,191.314 369.6,195.12 518.4,222.594 	"/>
	<g clip-path="url(#SVGID_32_)">
		<defs>
			<rect id="SVGID_33_" x="65.75" y="185.707" width="12.5" height="12.5"/>
		</defs>
		<clipPath id="SVGID_34_">
			<use xlink:href="#SVGID_33_"  overflow="visible"/>
		</clipPath>
		<polyline clip-path="url(#SVGID_34_)" points="72,185.957 66,197.957 78,197.957 72,185.957 		"/>
		
			<polyline clip-path="url(#SVGID_34_)" fill="none" stroke="#000000" stroke-width="0.5" stroke-linejoin="round" stroke-miterlimit="10" points="
			72,185.957 66,197.957 78,197.957 72,185.957 		"/>
	</g>
	<g clip-path="url(#SVGID_32_)">
		<defs>
			<rect id="SVGID_35_" x="214.55" y="185.064" width="12.5" height="12.5"/>
		</defs>
		<clipPath id="SVGID_36_">
			<use xlink:href="#SVGID_35_"  overflow="visible"/>
		</clipPath>
		<polyline clip-path="url(#SVGID_36_)" points="220.8,185.314 214.8,197.314 226.8,197.314 220.8,185.314 		"/>
		
			<polyline clip-path="url(#SVGID_36_)" fill="none" stroke="#000000" stroke-width="0.5" stroke-linejoin="round" stroke-miterlimit="10" points="
			220.8,185.314 214.8,197.314 226.8,197.314 220.8,185.314 		"/>
	</g>
	<g clip-path="url(#SVGID_32_)">
		<defs>
			<rect id="SVGID_37_" x="363.35" y="188.87" width="12.5" height="12.5"/>
		</defs>
		<clipPath id="SVGID_38_">
			<use xlink:href="#SVGID_37_"  overflow="visible"/>
		</clipPath>
		<polyline clip-path="url(#SVGID_38_)" points="369.6,189.12 363.6,201.12 375.6,201.12 369.6,189.12 		"/>
		
			<polyline clip-path="url(#SVGID_38_)" fill="none" stroke="#000000" stroke-width="0.5" stroke-linejoin="round" stroke-miterlimit="10" points="
			369.6,189.12 363.6,201.12 375.6,201.12 369.6,189.12 		"/>
	</g>
	<g clip-path="url(#SVGID_32_)">
		<defs>
			<rect id="SVGID_39_" x="512.15" y="216.344" width="12.5" height="12.5"/>
		</defs>
		<clipPath id="SVGID_40_">
			<use xlink:href="#SVGID_39_"  overflow="visible"/>
		</clipPath>
		<polyline clip-path="url(#SVGID_40_)" points="518.4,216.594 512.4,228.594 524.4,228.594 518.4,216.594 		"/>
		
			<polyline clip-path="url(#SVGID_40_)" fill="none" stroke="#000000" stroke-width="0.5" stroke-linejoin="round" stroke-miterlimit="10" points="
			518.4,216.594 512.4,228.594 524.4,228.594 518.4,216.594 		"/>
	</g>
</g>
<g>
	<defs>
		<rect id="SVGID_41_" x="72" y="43.2" width="446.4" height="345.6"/>
	</defs>
	<clipPath id="SVGID_42_">
		<use xlink:href="#SVGID_41_"  overflow="visible"/>
	</clipPath>
	
		<polyline clip-path="url(#SVGID_42_)" fill="none" stroke="#000000" stroke-width="2" stroke-linejoin="round" stroke-miterlimit="10" stroke-dasharray="6,6" points="
		72,298.292 220.8,191.314 369.6,197.992 518.4,290.733 	"/>
	<g clip-path="url(#SVGID_42_)">
		<defs>
			<rect id="SVGID_43_" x="65.75" y="292.042" width="12.5" height="12.5"/>
		</defs>
		<clipPath id="SVGID_44_">
			<use xlink:href="#SVGID_43_"  overflow="visible"/>
		</clipPath>
		<polyline clip-path="url(#SVGID_44_)" points="66,304.292 78,304.292 78,292.292 66,292.292 66,304.292 		"/>
		
			<polyline clip-path="url(#SVGID_44_)" fill="none" stroke="#000000" stroke-width="0.5" stroke-linejoin="round" stroke-miterlimit="10" points="
			66,304.292 78,304.292 78,292.292 66,292.292 66,304.292 		"/>
	</g>
	<g clip-path="url(#SVGID_42_)">
		<defs>
			<rect id="SVGID_45_" x="214.55" y="185.064" width="12.5" height="12.5"/>
		</defs>
		<clipPath id="SVGID_46_">
			<use xlink:href="#SVGID_45_"  overflow="visible"/>
		</clipPath>
		<polyline clip-path="url(#SVGID_46_)" points="214.8,197.314 226.8,197.314 226.8,185.314 214.8,185.314 214.8,197.314 		"/>
		
			<polyline clip-path="url(#SVGID_46_)" fill="none" stroke="#000000" stroke-width="0.5" stroke-linejoin="round" stroke-miterlimit="10" points="
			214.8,197.314 226.8,197.314 226.8,185.314 214.8,185.314 214.8,197.314 		"/>
	</g>
	<g clip-path="url(#SVGID_42_)">
		<defs>
			<rect id="SVGID_47_" x="363.35" y="191.742" width="12.5" height="12.5"/>
		</defs>
		<clipPath id="SVGID_48_">
			<use xlink:href="#SVGID_47_"  overflow="visible"/>
		</clipPath>
		<polyline clip-path="url(#SVGID_48_)" points="363.6,203.992 375.6,203.992 375.6,191.992 363.6,191.992 363.6,203.992 		"/>
		
			<polyline clip-path="url(#SVGID_48_)" fill="none" stroke="#000000" stroke-width="0.5" stroke-linejoin="round" stroke-miterlimit="10" points="
			363.6,203.992 375.6,203.992 375.6,191.992 363.6,191.992 363.6,203.992 		"/>
	</g>
	<g clip-path="url(#SVGID_42_)">
		<defs>
			<rect id="SVGID_49_" x="512.15" y="284.483" width="12.5" height="12.5"/>
		</defs>
		<clipPath id="SVGID_50_">
			<use xlink:href="#SVGID_49_"  overflow="visible"/>
		</clipPath>
		<polyline clip-path="url(#SVGID_50_)" points="512.4,296.733 524.4,296.733 524.4,284.733 512.4,284.733 512.4,296.733 		"/>
		
			<polyline clip-path="url(#SVGID_50_)" fill="none" stroke="#000000" stroke-width="0.5" stroke-linejoin="round" stroke-miterlimit="10" points="
			512.4,296.733 524.4,296.733 524.4,284.733 512.4,284.733 512.4,296.733 		"/>
	</g>
</g>
<g>
	<defs>
		<rect id="SVGID_51_" x="72" y="43.2" width="446.4" height="345.6"/>
	</defs>
	<clipPath id="SVGID_52_">
		<use xlink:href="#SVGID_51_"  overflow="visible"/>
	</clipPath>
	
		<polyline clip-path="url(#SVGID_52_)" fill="none" stroke="#000000" stroke-width="2" stroke-linecap="square" stroke-linejoin="round" stroke-miterlimit="10" points="
		72,298.796 220.8,191.314 369.6,205.39 518.4,345.627 	"/>
	<g clip-path="url(#SVGID_52_)">
		<defs>
			<rect id="SVGID_53_" x="65.75" y="292.546" width="12.5" height="12.5"/>
		</defs>
		<clipPath id="SVGID_54_">
			<use xlink:href="#SVGID_53_"  overflow="visible"/>
		</clipPath>
		<polyline clip-path="url(#SVGID_54_)" points="66,304.796 78,304.796 78,292.796 66,292.796 66,304.796 		"/>
		
			<polyline clip-path="url(#SVGID_54_)" fill="none" stroke="#000000" stroke-width="0.5" stroke-linejoin="round" stroke-miterlimit="10" points="
			66,304.796 78,304.796 78,292.796 66,292.796 66,304.796 		"/>
	</g>
	<g clip-path="url(#SVGID_52_)">
		<defs>
			<rect id="SVGID_55_" x="214.55" y="185.064" width="12.5" height="12.5"/>
		</defs>
		<clipPath id="SVGID_56_">
			<use xlink:href="#SVGID_55_"  overflow="visible"/>
		</clipPath>
		<polyline clip-path="url(#SVGID_56_)" points="214.8,197.314 226.8,197.314 226.8,185.314 214.8,185.314 214.8,197.314 		"/>
		
			<polyline clip-path="url(#SVGID_56_)" fill="none" stroke="#000000" stroke-width="0.5" stroke-linejoin="round" stroke-miterlimit="10" points="
			214.8,197.314 226.8,197.314 226.8,185.314 214.8,185.314 214.8,197.314 		"/>
	</g>
	<g clip-path="url(#SVGID_52_)">
		<defs>
			<rect id="SVGID_57_" x="363.35" y="199.14" width="12.5" height="12.5"/>
		</defs>
		<clipPath id="SVGID_58_">
			<use xlink:href="#SVGID_57_"  overflow="visible"/>
		</clipPath>
		<polyline clip-path="url(#SVGID_58_)" points="363.6,211.39 375.6,211.39 375.6,199.39 363.6,199.39 363.6,211.39 		"/>
		
			<polyline clip-path="url(#SVGID_58_)" fill="none" stroke="#000000" stroke-width="0.5" stroke-linejoin="round" stroke-miterlimit="10" points="
			363.6,211.39 375.6,211.39 375.6,199.39 363.6,199.39 363.6,211.39 		"/>
	</g>
	<g clip-path="url(#SVGID_52_)">
		<defs>
			<rect id="SVGID_59_" x="512.15" y="339.377" width="12.5" height="12.5"/>
		</defs>
		<clipPath id="SVGID_60_">
			<use xlink:href="#SVGID_59_"  overflow="visible"/>
		</clipPath>
		<polyline clip-path="url(#SVGID_60_)" points="512.4,351.627 524.4,351.627 524.4,339.627 512.4,339.627 512.4,351.627 		"/>
		
			<polyline clip-path="url(#SVGID_60_)" fill="none" stroke="#000000" stroke-width="0.5" stroke-linejoin="round" stroke-miterlimit="10" points="
			512.4,351.627 524.4,351.627 524.4,339.627 512.4,339.627 512.4,351.627 		"/>
	</g>
</g>
<g>
	<defs>
		<rect id="SVGID_61_" x="72" y="43.2" width="446.4" height="345.6"/>
	</defs>
	<clipPath id="SVGID_62_">
		<use xlink:href="#SVGID_61_"  overflow="visible"/>
	</clipPath>
	
		<line clip-path="url(#SVGID_62_)" fill="none" stroke="#000000" stroke-width="0.5" stroke-linejoin="round" stroke-miterlimit="10" stroke-dasharray="1,3" x1="72" y1="388.8" x2="72" y2="43.2"/>
</g>
<line fill="none" stroke="#000000" stroke-width="0.5" stroke-linejoin="round" stroke-miterlimit="10" x1="72" y1="388.8" x2="72" y2="384.8"/>
<line fill="none" stroke="#000000" stroke-width="0.5" stroke-linejoin="round" stroke-miterlimit="10" x1="72" y1="43.2" x2="72" y2="47.2"/>
<polyline points="64.425,401.098 69.686,401.098 69.686,402.698 64.425,402.698 64.425,401.098 "/>
<polyline points="73.145,405.718 76.365,405.718 76.365,394.598 72.865,395.298 72.865,393.498 76.345,392.798 78.325,392.798 
	78.325,405.718 81.545,405.718 81.545,407.378 73.145,407.378 73.145,405.718 "/>
<g>
	<defs>
		<rect id="SVGID_63_" x="72" y="43.2" width="446.4" height="345.6"/>
	</defs>
	<clipPath id="SVGID_64_">
		<use xlink:href="#SVGID_63_"  overflow="visible"/>
	</clipPath>
	
		<line clip-path="url(#SVGID_64_)" fill="none" stroke="#000000" stroke-width="0.5" stroke-linejoin="round" stroke-miterlimit="10" stroke-dasharray="1,3" x1="220.8" y1="388.8" x2="220.8" y2="43.2"/>
</g>
<line fill="none" stroke="#000000" stroke-width="0.5" stroke-linejoin="round" stroke-miterlimit="10" x1="220.8" y1="388.8" x2="220.8" y2="384.8"/>
<line fill="none" stroke="#000000" stroke-width="0.5" stroke-linejoin="round" stroke-miterlimit="10" x1="220.8" y1="43.2" x2="220.8" y2="47.2"/>
<path d="M222.121,392.804c1.62,0,2.86,0.66,3.74,1.94c0.86,1.3,1.3,3.18,1.3,5.619c0,2.461-0.44,4.341-1.3,5.62
	c-0.88,1.28-2.12,1.92-3.74,1.92c-1.64,0-2.9-0.64-3.76-1.92c-0.86-1.279-1.28-3.159-1.28-5.62c0-2.439,0.42-4.319,1.28-5.619
	C219.221,393.464,220.481,392.804,222.121,392.804 M222.121,394.363c-1.02,0-1.78,0.5-2.3,1.5s-0.76,2.5-0.76,4.5s0.24,3.5,0.76,4.5
	s1.28,1.5,2.3,1.5s1.78-0.5,2.3-1.5c0.5-1,0.76-2.5,0.76-4.5s-0.26-3.5-0.76-4.5C223.901,394.863,223.141,394.363,222.121,394.363"
	/>
<g>
	<defs>
		<rect id="SVGID_65_" x="72" y="43.2" width="446.4" height="345.6"/>
	</defs>
	<clipPath id="SVGID_66_">
		<use xlink:href="#SVGID_65_"  overflow="visible"/>
	</clipPath>
	
		<line clip-path="url(#SVGID_66_)" fill="none" stroke="#000000" stroke-width="0.5" stroke-linejoin="round" stroke-miterlimit="10" stroke-dasharray="1,3" x1="369.6" y1="388.8" x2="369.6" y2="43.2"/>
</g>
<line fill="none" stroke="#000000" stroke-width="0.5" stroke-linejoin="round" stroke-miterlimit="10" x1="369.6" y1="388.8" x2="369.6" y2="384.8"/>
<line fill="none" stroke="#000000" stroke-width="0.5" stroke-linejoin="round" stroke-miterlimit="10" x1="369.6" y1="43.2" x2="369.6" y2="47.2"/>
<polyline points="367.744,405.718 370.964,405.718 370.964,394.598 367.464,395.298 367.464,393.498 370.944,392.798 
	372.924,392.798 372.924,405.718 376.145,405.718 376.145,407.378 367.744,407.378 367.744,405.718 "/>
<g>
	<defs>
		<rect id="SVGID_67_" x="72" y="43.2" width="446.4" height="345.6"/>
	</defs>
	<clipPath id="SVGID_68_">
		<use xlink:href="#SVGID_67_"  overflow="visible"/>
	</clipPath>
	
		<line clip-path="url(#SVGID_68_)" fill="none" stroke="#000000" stroke-width="0.5" stroke-linejoin="round" stroke-miterlimit="10" stroke-dasharray="1,3" x1="518.4" y1="388.8" x2="518.4" y2="43.2"/>
</g>
<line fill="none" stroke="#000000" stroke-width="0.5" stroke-linejoin="round" stroke-miterlimit="10" x1="518.4" y1="388.8" x2="518.4" y2="384.8"/>
<line fill="none" stroke="#000000" stroke-width="0.5" stroke-linejoin="round" stroke-miterlimit="10" x1="518.4" y1="43.2" x2="518.4" y2="47.2"/>
<path d="M517.615,405.983h6.88v1.66h-9.26v-1.66c0.739-0.76,1.76-1.8,3.06-3.12c1.28-1.3,2.1-2.14,2.44-2.52
	c0.64-0.7,1.08-1.3,1.319-1.8c0.24-0.48,0.38-0.98,0.38-1.46c0-0.76-0.279-1.4-0.819-1.88c-0.54-0.48-1.24-0.74-2.12-0.74
	c-0.62,0-1.28,0.12-1.96,0.32c-0.68,0.22-1.42,0.54-2.2,0.979v-2c0.8-0.32,1.54-0.56,2.22-0.72c0.681-0.16,1.32-0.24,1.9-0.24
	c1.5,0,2.7,0.38,3.6,1.14c0.9,0.761,1.36,1.761,1.36,3.021c0,0.6-0.12,1.18-0.34,1.7c-0.22,0.54-0.62,1.18-1.22,1.899
	c-0.16,0.2-0.681,0.74-1.561,1.641C520.415,403.104,519.195,404.363,517.615,405.983"/>
<polyline points="162.525,412.928 164.325,412.928 164.325,428.128 162.525,428.128 162.525,412.928 "/>
<path d="M175.646,421.688c-0.02-0.98-0.3-1.761-0.82-2.36c-0.54-0.58-1.26-0.88-2.14-0.88c-1,0-1.8,0.3-2.4,0.86
	c-0.6,0.56-0.96,1.359-1.04,2.38H175.646 M177.445,422.208v0.88h-8.26c0.08,1.24,0.44,2.2,1.12,2.84c0.66,0.641,1.58,0.96,2.78,0.96
	c0.68,0,1.36-0.079,2-0.239c0.64-0.16,1.3-0.42,1.94-0.78v1.7c-0.64,0.279-1.3,0.5-1.98,0.62c-0.68,0.12-1.38,0.199-2.06,0.199
	c-1.76,0-3.14-0.5-4.16-1.5s-1.52-2.38-1.52-4.119c0-1.78,0.48-3.2,1.44-4.261c0.96-1.04,2.28-1.58,3.92-1.58
	c1.48,0,2.64,0.48,3.5,1.42C177.005,419.309,177.445,420.588,177.445,422.208"/>
<polyline points="179.105,417.188 181.005,417.188 184.425,426.368 187.845,417.188 189.746,417.188 185.646,428.128 
	183.206,428.128 179.105,417.188 "/>
<path d="M199.785,421.688c-0.02-0.98-0.3-1.761-0.82-2.36c-0.54-0.58-1.26-0.88-2.14-0.88c-1,0-1.8,0.3-2.4,0.86
	c-0.6,0.56-0.96,1.359-1.04,2.38H199.785 M201.585,422.208v0.88h-8.26c0.08,1.24,0.44,2.2,1.12,2.84c0.66,0.641,1.58,0.96,2.78,0.96
	c0.68,0,1.36-0.079,2-0.239c0.64-0.16,1.3-0.42,1.94-0.78v1.7c-0.64,0.279-1.3,0.5-1.98,0.62c-0.68,0.12-1.38,0.199-2.06,0.199
	c-1.76,0-3.14-0.5-4.16-1.5s-1.52-2.38-1.52-4.119c0-1.78,0.48-3.2,1.44-4.261c0.96-1.04,2.28-1.58,3.92-1.58
	c1.48,0,2.64,0.48,3.5,1.42C201.146,419.309,201.585,420.588,201.585,422.208"/>
<polyline points="204.525,412.928 206.325,412.928 206.325,428.128 204.525,428.128 204.525,412.928 "/>
<path d="M220.685,416.928c1.56,0,2.78,0.521,3.68,1.521c0.88,1.02,1.34,2.42,1.34,4.22s-0.46,3.2-1.34,4.2
	c-0.9,1.02-2.12,1.52-3.68,1.52c-1.58,0-2.82-0.5-3.7-1.52c-0.88-1-1.32-2.4-1.32-4.2s0.44-3.2,1.32-4.22
	C217.865,417.448,219.105,416.928,220.685,416.928 M220.685,418.448c-0.96,0-1.72,0.38-2.28,1.14s-0.84,1.78-0.84,3.08
	c0,1.32,0.26,2.34,0.82,3.101c0.56,0.76,1.32,1.119,2.3,1.119c0.96,0,1.72-0.359,2.28-1.119c0.56-0.761,0.84-1.78,0.84-3.101
	c0-1.28-0.28-2.32-0.84-3.08S221.646,418.448,220.685,418.448"/>
<path d="M234.225,412.928v1.5h-1.72c-0.64,0-1.1,0.141-1.34,0.4c-0.26,0.26-0.38,0.72-0.38,1.4v0.96h2.96v1.399h-2.96v9.54h-1.8
	v-9.54h-1.72v-1.399h1.72v-0.761c0-1.199,0.28-2.1,0.84-2.659c0.56-0.561,1.46-0.841,2.7-0.841H234.225"/>
<path d="M246.325,416.928c1.56,0,2.78,0.521,3.68,1.521c0.88,1.02,1.34,2.42,1.34,4.22s-0.46,3.2-1.34,4.2
	c-0.9,1.02-2.12,1.52-3.68,1.52c-1.58,0-2.82-0.5-3.7-1.52c-0.88-1-1.32-2.4-1.32-4.2s0.44-3.2,1.32-4.22
	C243.505,417.448,244.745,416.928,246.325,416.928 M246.325,418.448c-0.96,0-1.72,0.38-2.28,1.14s-0.84,1.78-0.84,3.08
	c0,1.32,0.26,2.34,0.82,3.101c0.56,0.76,1.32,1.119,2.3,1.119c0.96,0,1.72-0.359,2.28-1.119c0.56-0.761,0.84-1.78,0.84-3.101
	c0-1.28-0.28-2.32-0.84-3.08C248.045,418.828,247.285,418.448,246.325,418.448"/>
<polyline points="253.045,417.188 254.945,417.188 258.365,426.368 261.785,417.188 263.685,417.188 259.585,428.128 
	257.145,428.128 253.045,417.188 "/>
<path d="M273.725,421.688c-0.02-0.98-0.3-1.761-0.82-2.36c-0.54-0.58-1.26-0.88-2.14-0.88c-1,0-1.8,0.3-2.4,0.86
	c-0.6,0.56-0.96,1.359-1.04,2.38H273.725 M275.525,422.208v0.88h-8.26c0.08,1.24,0.44,2.2,1.12,2.84c0.66,0.641,1.58,0.96,2.78,0.96
	c0.68,0,1.36-0.079,2-0.239c0.64-0.16,1.3-0.42,1.94-0.78v1.7c-0.64,0.279-1.3,0.5-1.98,0.62c-0.68,0.12-1.38,0.199-2.06,0.199
	c-1.76,0-3.14-0.5-4.16-1.5s-1.52-2.38-1.52-4.119c0-1.78,0.48-3.2,1.44-4.261c0.96-1.04,2.28-1.58,3.92-1.58
	c1.48,0,2.64,0.48,3.5,1.42C275.085,419.309,275.525,420.588,275.525,422.208"/>
<path d="M284.805,418.868c-0.2-0.12-0.42-0.2-0.66-0.26c-0.24-0.04-0.5-0.08-0.78-0.08c-1.02,0-1.8,0.34-2.34,1
	c-0.56,0.66-0.82,1.6-0.82,2.84v5.76h-1.8v-10.939h1.8v1.699c0.36-0.659,0.86-1.159,1.46-1.479c0.6-0.32,1.34-0.48,2.22-0.48
	c0.12,0,0.26,0.021,0.42,0.021c0.14,0.02,0.3,0.04,0.5,0.08V418.868"/>
<path d="M287.765,422.668c0,1.32,0.26,2.36,0.8,3.12s1.3,1.12,2.26,1.12c0.94,0,1.68-0.36,2.24-1.12c0.54-0.76,0.819-1.8,0.819-3.12
	s-0.279-2.34-0.819-3.1c-0.561-0.76-1.3-1.141-2.24-1.141c-0.96,0-1.72,0.381-2.26,1.141S287.765,421.348,287.765,422.668
	 M293.885,418.848v-5.92h1.801v15.2h-1.801v-1.64c-0.38,0.66-0.859,1.14-1.439,1.439c-0.58,0.301-1.26,0.46-2.061,0.46
	c-1.319,0-2.399-0.52-3.24-1.56c-0.84-1.04-1.24-2.44-1.24-4.16s0.4-3.1,1.24-4.16c0.84-1.04,1.92-1.58,3.24-1.58
	c0.801,0,1.48,0.16,2.061,0.48S293.505,418.208,293.885,418.848"/>
<path d="M306.945,421.688c-0.021-0.98-0.3-1.761-0.82-2.36c-0.54-0.58-1.26-0.88-2.14-0.88c-1,0-1.8,0.3-2.4,0.86
	c-0.6,0.56-0.96,1.359-1.04,2.38H306.945 M308.745,422.208v0.88h-8.26c0.08,1.24,0.439,2.2,1.12,2.84
	c0.659,0.641,1.58,0.96,2.779,0.96c0.681,0,1.36-0.079,2-0.239c0.641-0.16,1.301-0.42,1.94-0.78v1.7c-0.64,0.279-1.3,0.5-1.98,0.62
	c-0.68,0.12-1.38,0.199-2.06,0.199c-1.76,0-3.14-0.5-4.16-1.5c-1.02-1-1.52-2.38-1.52-4.119c0-1.78,0.479-3.2,1.439-4.261
	c0.96-1.04,2.28-1.58,3.92-1.58c1.48,0,2.641,0.48,3.5,1.42C308.305,419.309,308.745,420.588,308.745,422.208"/>
<path d="M319.565,417.608v1.68c-0.521-0.28-1.021-0.479-1.54-0.62c-0.521-0.14-1.021-0.22-1.54-0.22c-1.16,0-2.08,0.38-2.72,1.12
	c-0.641,0.74-0.961,1.779-0.961,3.1c0,1.34,0.32,2.38,0.961,3.12c0.64,0.74,1.56,1.1,2.72,1.1c0.52,0,1.02-0.06,1.54-0.199
	c0.52-0.141,1.02-0.36,1.54-0.641v1.66c-0.521,0.24-1.04,0.42-1.561,0.521c-0.54,0.1-1.12,0.159-1.72,0.159
	c-1.64,0-2.96-0.5-3.92-1.54c-0.98-1.02-1.46-2.42-1.46-4.18c0-1.78,0.479-3.18,1.46-4.2c0.979-1.02,2.32-1.54,4.04-1.54
	c0.56,0,1.1,0.061,1.62,0.181C318.545,417.229,319.065,417.388,319.565,417.608"/>
<path d="M326.925,416.928c1.561,0,2.78,0.521,3.681,1.521c0.88,1.02,1.34,2.42,1.34,4.22s-0.46,3.2-1.34,4.2
	c-0.9,1.02-2.12,1.52-3.681,1.52c-1.579,0-2.819-0.5-3.699-1.52c-0.88-1-1.32-2.4-1.32-4.2s0.44-3.2,1.32-4.22
	C324.105,417.448,325.346,416.928,326.925,416.928 M326.925,418.448c-0.96,0-1.72,0.38-2.279,1.14c-0.561,0.76-0.84,1.78-0.84,3.08
	c0,1.32,0.26,2.34,0.819,3.101c0.561,0.76,1.32,1.119,2.3,1.119c0.96,0,1.721-0.359,2.28-1.119c0.561-0.761,0.84-1.78,0.84-3.101
	c0-1.28-0.279-2.32-0.84-3.08C328.646,418.828,327.885,418.448,326.925,418.448"/>
<path d="M343.445,419.288c0.439-0.8,0.979-1.38,1.6-1.78c0.62-0.38,1.36-0.58,2.221-0.58c1.119,0,2,0.4,2.619,1.2
	c0.62,0.8,0.94,1.94,0.94,3.4v6.6h-1.8v-6.54c0-1.04-0.2-1.819-0.561-2.34c-0.38-0.5-0.939-0.76-1.699-0.76
	c-0.94,0-1.681,0.32-2.221,0.939c-0.54,0.62-0.8,1.46-0.8,2.521v6.18h-1.8v-6.54c0-1.04-0.2-1.819-0.561-2.34
	c-0.38-0.5-0.96-0.76-1.72-0.76c-0.92,0-1.66,0.32-2.2,0.939c-0.54,0.62-0.8,1.46-0.8,2.521v6.18h-1.8v-10.939h1.8v1.699
	c0.4-0.659,0.9-1.159,1.48-1.479c0.56-0.32,1.239-0.48,2.04-0.48c0.8,0,1.46,0.2,2.02,0.601
	C342.766,417.928,343.165,418.528,343.445,419.288"/>
<path d="M362.266,422.668c0-1.32-0.28-2.34-0.82-3.1c-0.561-0.76-1.3-1.141-2.24-1.141c-0.96,0-1.7,0.381-2.24,1.141
	c-0.56,0.76-0.819,1.779-0.819,3.1s0.26,2.36,0.819,3.12c0.54,0.76,1.28,1.12,2.24,1.12c0.94,0,1.68-0.36,2.24-1.12
	C361.985,425.028,362.266,423.988,362.266,422.668 M356.146,426.488v5.78h-1.8v-15.08h1.8v1.659c0.359-0.64,0.84-1.119,1.42-1.439
	s1.28-0.48,2.08-0.48c1.319,0,2.399,0.54,3.239,1.58c0.82,1.061,1.24,2.44,1.24,4.16s-0.42,3.12-1.24,4.16
	c-0.84,1.04-1.92,1.56-3.239,1.56c-0.8,0-1.5-0.159-2.08-0.46C356.985,427.628,356.505,427.148,356.146,426.488"/>
<path d="M371.345,416.928c1.561,0,2.78,0.521,3.681,1.521c0.88,1.02,1.34,2.42,1.34,4.22s-0.46,3.2-1.34,4.2
	c-0.9,1.02-2.12,1.52-3.681,1.52c-1.58,0-2.819-0.5-3.699-1.52c-0.881-1-1.32-2.4-1.32-4.2s0.439-3.2,1.32-4.22
	C368.525,417.448,369.765,416.928,371.345,416.928 M371.345,418.448c-0.96,0-1.72,0.38-2.279,1.14
	c-0.561,0.76-0.841,1.78-0.841,3.08c0,1.32,0.261,2.34,0.82,3.101c0.561,0.76,1.32,1.119,2.3,1.119c0.96,0,1.721-0.359,2.28-1.119
	c0.561-0.761,0.84-1.78,0.84-3.101c0-1.28-0.279-2.32-0.84-3.08C373.065,418.828,372.305,418.448,371.345,418.448"/>
<path d="M386.325,417.508v1.7c-0.521-0.24-1.04-0.439-1.58-0.58c-0.56-0.12-1.12-0.2-1.7-0.2c-0.899,0-1.58,0.141-2.02,0.42
	c-0.44,0.28-0.66,0.681-0.66,1.221c0,0.42,0.16,0.74,0.479,0.979c0.32,0.24,0.96,0.48,1.92,0.681l0.62,0.14
	c1.28,0.28,2.181,0.68,2.721,1.16c0.52,0.5,0.8,1.2,0.8,2.08c0,1.02-0.4,1.819-1.2,2.399c-0.8,0.601-1.92,0.88-3.32,0.88
	c-0.6,0-1.199-0.06-1.84-0.159c-0.64-0.101-1.3-0.261-2-0.5v-1.86c0.66,0.36,1.32,0.62,1.96,0.78c0.641,0.18,1.28,0.26,1.92,0.26
	c0.84,0,1.5-0.14,1.96-0.42c0.44-0.28,0.681-0.7,0.681-1.24c0-0.479-0.181-0.86-0.5-1.12c-0.32-0.26-1.04-0.52-2.16-0.76l-0.62-0.14
	c-1.12-0.24-1.94-0.601-2.42-1.08c-0.5-0.48-0.74-1.141-0.74-2c0-1.021,0.36-1.82,1.08-2.38c0.72-0.561,1.76-0.841,3.12-0.841
	c0.66,0,1.28,0.061,1.88,0.16C385.285,417.188,385.825,417.328,386.325,417.508"/>
<path d="M389.765,412.928h1.801v2.28h-1.801V412.928 M389.765,417.188h1.801v10.939h-1.801V417.188"/>
<path d="M397.105,414.088v3.101h3.699v1.399h-3.699v5.94c0,0.899,0.119,1.479,0.359,1.72c0.24,0.26,0.74,0.38,1.5,0.38h1.84v1.5
	h-1.84c-1.399,0-2.359-0.26-2.88-0.78c-0.52-0.52-0.78-1.46-0.78-2.819v-5.94h-1.319v-1.399h1.319v-3.101H397.105"/>
<path d="M403.165,412.928h1.8v2.28h-1.8V412.928 M403.165,417.188h1.8v10.939h-1.8V417.188"/>
<path d="M412.965,416.928c1.561,0,2.78,0.521,3.68,1.521c0.881,1.02,1.341,2.42,1.341,4.22s-0.46,3.2-1.341,4.2
	c-0.899,1.02-2.119,1.52-3.68,1.52c-1.58,0-2.82-0.5-3.7-1.52c-0.88-1-1.319-2.4-1.319-4.2s0.439-3.2,1.319-4.22
	C410.145,417.448,411.385,416.928,412.965,416.928 M412.965,418.448c-0.96,0-1.72,0.38-2.28,1.14c-0.56,0.76-0.84,1.78-0.84,3.08
	c0,1.32,0.261,2.34,0.82,3.101c0.56,0.76,1.32,1.119,2.3,1.119c0.96,0,1.72-0.359,2.28-1.119c0.56-0.761,0.84-1.78,0.84-3.101
	c0-1.28-0.28-2.32-0.84-3.08C414.685,418.828,413.925,418.448,412.965,418.448"/>
<path d="M430.065,421.528v6.6h-1.801v-6.54c0-1.04-0.22-1.8-0.62-2.319c-0.399-0.521-1-0.78-1.8-0.78c-0.979,0-1.74,0.32-2.3,0.939
	c-0.56,0.62-0.84,1.46-0.84,2.521v6.18h-1.8v-10.939h1.8v1.699c0.42-0.64,0.92-1.14,1.52-1.46c0.58-0.319,1.261-0.5,2.021-0.5
	c1.24,0,2.2,0.4,2.84,1.181C429.725,418.888,430.065,420.028,430.065,421.528"/>
<g>
	<defs>
		<rect id="SVGID_69_" x="72" y="43.2" width="446.4" height="345.6"/>
	</defs>
	<clipPath id="SVGID_70_">
		<use xlink:href="#SVGID_69_"  overflow="visible"/>
	</clipPath>
	
		<line clip-path="url(#SVGID_70_)" fill="none" stroke="#000000" stroke-width="0.5" stroke-linejoin="round" stroke-miterlimit="10" stroke-dasharray="1,3" x1="72" y1="388.8" x2="518.4" y2="388.8"/>
</g>
<line fill="none" stroke="#000000" stroke-width="0.5" stroke-linejoin="round" stroke-miterlimit="10" x1="72" y1="388.8" x2="76" y2="388.8"/>
<line fill="none" stroke="#000000" stroke-width="0.5" stroke-linejoin="round" stroke-miterlimit="10" x1="518.4" y1="388.8" x2="514.4" y2="388.8"/>
<path d="M45.875,381.241c1.62,0,2.86,0.66,3.74,1.94c0.86,1.3,1.3,3.18,1.3,5.619c0,2.461-0.44,4.341-1.3,5.62
	c-0.88,1.28-2.12,1.92-3.74,1.92c-1.64,0-2.9-0.64-3.76-1.92c-0.86-1.279-1.28-3.159-1.28-5.62c0-2.439,0.42-4.319,1.28-5.619
	C42.976,381.901,44.236,381.241,45.875,381.241 M45.875,382.801c-1.02,0-1.78,0.5-2.3,1.5s-0.76,2.5-0.76,4.5s0.24,3.5,0.76,4.5
	s1.28,1.5,2.3,1.5s1.78-0.5,2.3-1.5c0.5-1,0.76-2.5,0.76-4.5s-0.26-3.5-0.76-4.5C47.656,383.301,46.896,382.801,45.875,382.801"/>
<polyline points="54.375,393.602 56.436,393.602 56.436,396.081 54.375,396.081 54.375,393.602 "/>
<path d="M62.436,394.421h6.88v1.66h-9.26v-1.66c0.74-0.76,1.76-1.8,3.06-3.12c1.28-1.3,2.1-2.14,2.44-2.52
	c0.64-0.7,1.08-1.3,1.32-1.8c0.24-0.48,0.38-0.98,0.38-1.46c0-0.76-0.28-1.4-0.82-1.88c-0.54-0.48-1.24-0.74-2.12-0.74
	c-0.62,0-1.28,0.12-1.96,0.32c-0.68,0.22-1.42,0.54-2.2,0.979v-2c0.8-0.32,1.54-0.56,2.22-0.72s1.32-0.24,1.9-0.24
	c1.5,0,2.7,0.38,3.6,1.14c0.9,0.761,1.36,1.761,1.36,3.021c0,0.6-0.12,1.18-0.34,1.7c-0.22,0.54-0.62,1.18-1.22,1.899
	c-0.16,0.2-0.68,0.74-1.56,1.641C65.235,391.541,64.016,392.801,62.436,394.421"/>
<g>
	<defs>
		<rect id="SVGID_71_" x="72" y="43.2" width="446.4" height="345.6"/>
	</defs>
	<clipPath id="SVGID_72_">
		<use xlink:href="#SVGID_71_"  overflow="visible"/>
	</clipPath>
	
		<line clip-path="url(#SVGID_72_)" fill="none" stroke="#000000" stroke-width="0.5" stroke-linejoin="round" stroke-miterlimit="10" stroke-dasharray="1,3" x1="72" y1="339.429" x2="518.4" y2="339.429"/>
</g>
<line fill="none" stroke="#000000" stroke-width="0.5" stroke-linejoin="round" stroke-miterlimit="10" x1="72" y1="339.429" x2="76" y2="339.429"/>
<line fill="none" stroke="#000000" stroke-width="0.5" stroke-linejoin="round" stroke-miterlimit="10" x1="518.4" y1="339.429" x2="514.4" y2="339.429"/>
<path d="M44.985,331.87c1.62,0,2.86,0.66,3.74,1.939c0.86,1.3,1.3,3.181,1.3,5.62c0,2.46-0.44,4.34-1.3,5.62
	c-0.88,1.28-2.12,1.92-3.74,1.92c-1.64,0-2.9-0.64-3.76-1.92s-1.28-3.16-1.28-5.62c0-2.439,0.42-4.32,1.28-5.62
	C42.085,332.53,43.345,331.87,44.985,331.87 M44.985,333.43c-1.02,0-1.78,0.5-2.3,1.5s-0.76,2.5-0.76,4.5s0.24,3.5,0.76,4.5
	s1.28,1.5,2.3,1.5s1.78-0.5,2.3-1.5c0.5-1,0.76-2.5,0.76-4.5s-0.26-3.5-0.76-4.5C46.765,333.93,46.005,333.43,44.985,333.43"/>
<polyline points="53.485,344.229 55.545,344.229 55.545,346.71 53.485,346.71 53.485,344.229 "/>
<path d="M64.745,332.13h2.48v9.5h2.08v1.64h-2.08v3.44h-1.96v-3.44h-6.58v-1.899L64.745,332.13 M65.265,333.85l-4.98,7.78h4.98
	V333.85"/>
<g>
	<defs>
		<rect id="SVGID_73_" x="72" y="43.2" width="446.4" height="345.6"/>
	</defs>
	<clipPath id="SVGID_74_">
		<use xlink:href="#SVGID_73_"  overflow="visible"/>
	</clipPath>
	
		<line clip-path="url(#SVGID_74_)" fill="none" stroke="#000000" stroke-width="0.5" stroke-linejoin="round" stroke-miterlimit="10" stroke-dasharray="1,3" x1="72" y1="290.058" x2="518.4" y2="290.058"/>
</g>
<line fill="none" stroke="#000000" stroke-width="0.5" stroke-linejoin="round" stroke-miterlimit="10" x1="72" y1="290.058" x2="76" y2="290.058"/>
<line fill="none" stroke="#000000" stroke-width="0.5" stroke-linejoin="round" stroke-miterlimit="10" x1="518.4" y1="290.058" x2="514.4" y2="290.058"/>
<path d="M45.125,282.498c1.62,0,2.86,0.66,3.74,1.94c0.86,1.3,1.3,3.18,1.3,5.62c0,2.46-0.44,4.34-1.3,5.62
	c-0.88,1.279-2.12,1.92-3.74,1.92c-1.64,0-2.9-0.641-3.76-1.92c-0.86-1.28-1.28-3.16-1.28-5.62c0-2.44,0.42-4.32,1.28-5.62
	C42.226,283.158,43.486,282.498,45.125,282.498 M45.125,284.059c-1.02,0-1.78,0.5-2.3,1.5s-0.76,2.5-0.76,4.5s0.24,3.5,0.76,4.5
	s1.28,1.5,2.3,1.5s1.78-0.5,2.3-1.5c0.5-1,0.76-2.5,0.76-4.5s-0.26-3.5-0.76-4.5C46.906,284.559,46.146,284.059,45.125,284.059"/>
<polyline points="53.625,294.858 55.686,294.858 55.686,297.339 53.625,297.339 53.625,294.858 "/>
<path d="M68.366,283.078v1.8c-0.5-0.239-1-0.42-1.5-0.539c-0.52-0.12-1.02-0.181-1.5-0.181c-1.32,0-2.32,0.44-3,1.32
	c-0.68,0.88-1.08,2.22-1.16,3.979c0.38-0.56,0.86-1,1.44-1.3s1.22-0.46,1.92-0.46c1.46,0,2.62,0.46,3.46,1.34
	c0.84,0.88,1.28,2.101,1.28,3.62c0,1.5-0.46,2.7-1.34,3.601c-0.88,0.899-2.06,1.34-3.52,1.34c-1.68,0-2.98-0.641-3.86-1.92
	c-0.9-1.28-1.34-3.16-1.34-5.62c0-2.3,0.54-4.141,1.64-5.5c1.08-1.36,2.56-2.061,4.4-2.061c0.48,0,0.98,0.061,1.5,0.141
	C67.286,282.738,67.806,282.878,68.366,283.078 M64.445,289.259c-0.88,0-1.58,0.319-2.1,0.92c-0.52,0.6-0.78,1.439-0.78,2.479
	c0,1.061,0.26,1.9,0.78,2.5c0.52,0.601,1.22,0.9,2.1,0.9c0.88,0,1.58-0.3,2.1-0.9c0.52-0.6,0.78-1.439,0.78-2.5
	c0-1.04-0.26-1.88-0.78-2.479C66.025,289.578,65.326,289.259,64.445,289.259"/>
<g>
	<defs>
		<rect id="SVGID_75_" x="72" y="43.2" width="446.4" height="345.6"/>
	</defs>
	<clipPath id="SVGID_76_">
		<use xlink:href="#SVGID_75_"  overflow="visible"/>
	</clipPath>
	
		<line clip-path="url(#SVGID_76_)" fill="none" stroke="#000000" stroke-width="0.5" stroke-linejoin="round" stroke-miterlimit="10" stroke-dasharray="1,3" x1="72" y1="240.686" x2="518.4" y2="240.686"/>
</g>
<line fill="none" stroke="#000000" stroke-width="0.5" stroke-linejoin="round" stroke-miterlimit="10" x1="72" y1="240.686" x2="76" y2="240.686"/>
<line fill="none" stroke="#000000" stroke-width="0.5" stroke-linejoin="round" stroke-miterlimit="10" x1="518.4" y1="240.686" x2="514.4" y2="240.686"/>
<path d="M45.235,233.127c1.62,0,2.86,0.66,3.74,1.94c0.86,1.3,1.3,3.18,1.3,5.619c0,2.46-0.44,4.341-1.3,5.62
	c-0.88,1.28-2.12,1.92-3.74,1.92c-1.64,0-2.9-0.64-3.76-1.92c-0.86-1.279-1.28-3.16-1.28-5.62c0-2.439,0.42-4.319,1.28-5.619
	C42.335,233.787,43.595,233.127,45.235,233.127 M45.235,234.687c-1.02,0-1.78,0.5-2.3,1.5s-0.76,2.5-0.76,4.5s0.24,3.5,0.76,4.5
	s1.28,1.5,2.3,1.5s1.78-0.5,2.3-1.5c0.5-1,0.76-2.5,0.76-4.5s-0.26-3.5-0.76-4.5C47.015,235.187,46.255,234.687,45.235,234.687"/>
<polyline points="53.735,245.487 55.795,245.487 55.795,247.967 53.735,247.967 53.735,245.487 "/>
<path d="M61.615,237.087c0,0.76,0.22,1.36,0.7,1.78s1.14,0.62,2,0.62c0.84,0,1.5-0.2,1.98-0.62s0.72-1.021,0.72-1.78
	s-0.24-1.34-0.72-1.76s-1.14-0.641-1.98-0.641c-0.86,0-1.52,0.221-2,0.641S61.615,236.327,61.615,237.087 M62.335,240.207
	c-0.84-0.2-1.5-0.6-1.98-1.18s-0.7-1.28-0.7-2.12c0-1.16,0.4-2.08,1.24-2.761c0.82-0.68,1.96-1.02,3.42-1.02
	c1.44,0,2.58,0.34,3.42,1.02c0.82,0.681,1.24,1.601,1.24,2.761c0,0.84-0.24,1.54-0.72,2.12s-1.12,0.979-1.96,1.18
	c0.94,0.22,1.68,0.66,2.22,1.3c0.52,0.64,0.8,1.44,0.8,2.36c0,1.42-0.44,2.5-1.3,3.24c-0.88,0.76-2.1,1.119-3.7,1.119
	c-1.62,0-2.86-0.359-3.72-1.119c-0.86-0.74-1.28-1.82-1.28-3.24c0-0.92,0.26-1.721,0.8-2.36
	C60.635,240.867,61.375,240.427,62.335,240.207 M64.315,241.047c-0.94,0-1.68,0.26-2.22,0.76s-0.8,1.181-0.8,2.061
	s0.26,1.58,0.8,2.08s1.28,0.739,2.22,0.739c0.92,0,1.66-0.239,2.2-0.76c0.54-0.5,0.82-1.18,0.82-2.06s-0.28-1.561-0.8-2.061
	C65.995,241.307,65.255,241.047,64.315,241.047"/>
<g>
	<defs>
		<rect id="SVGID_77_" x="72" y="43.2" width="446.4" height="345.6"/>
	</defs>
	<clipPath id="SVGID_78_">
		<use xlink:href="#SVGID_77_"  overflow="visible"/>
	</clipPath>
	
		<line clip-path="url(#SVGID_78_)" fill="none" stroke="#000000" stroke-width="0.5" stroke-linejoin="round" stroke-miterlimit="10" stroke-dasharray="1,3" x1="72" y1="191.314" x2="518.4" y2="191.314"/>
</g>
<line fill="none" stroke="#000000" stroke-width="0.5" stroke-linejoin="round" stroke-miterlimit="10" x1="72" y1="191.314" x2="76" y2="191.314"/>
<line fill="none" stroke="#000000" stroke-width="0.5" stroke-linejoin="round" stroke-miterlimit="10" x1="518.4" y1="191.314" x2="514.4" y2="191.314"/>
<polyline points="42.214,196.936 45.435,196.936 45.435,185.815 41.935,186.516 41.935,184.715 45.415,184.016 47.395,184.016 
	47.395,196.936 50.614,196.936 50.614,198.596 42.214,198.596 42.214,196.936 "/>
<polyline points="54.594,196.116 56.654,196.116 56.654,198.596 54.594,198.596 54.594,196.116 "/>
<path d="M65.174,183.755c1.62,0,2.86,0.66,3.74,1.94c0.86,1.3,1.3,3.18,1.3,5.62c0,2.46-0.44,4.34-1.3,5.62
	c-0.88,1.28-2.12,1.92-3.74,1.92c-1.64,0-2.9-0.64-3.76-1.92c-0.86-1.28-1.28-3.16-1.28-5.62c0-2.44,0.42-4.32,1.28-5.62
	C62.274,184.416,63.534,183.755,65.174,183.755 M65.174,185.315c-1.02,0-1.78,0.5-2.3,1.5c-0.52,1-0.76,2.5-0.76,4.5
	s0.24,3.5,0.76,4.5c0.52,1,1.28,1.5,2.3,1.5s1.78-0.5,2.3-1.5c0.5-1,0.76-2.5,0.76-4.5s-0.26-3.5-0.76-4.5
	C66.954,185.815,66.194,185.315,65.174,185.315"/>
<g>
	<defs>
		<rect id="SVGID_79_" x="72" y="43.2" width="446.4" height="345.6"/>
	</defs>
	<clipPath id="SVGID_80_">
		<use xlink:href="#SVGID_79_"  overflow="visible"/>
	</clipPath>
	
		<line clip-path="url(#SVGID_80_)" fill="none" stroke="#000000" stroke-width="0.5" stroke-linejoin="round" stroke-miterlimit="10" stroke-dasharray="1,3" x1="72" y1="141.943" x2="518.4" y2="141.943"/>
</g>
<line fill="none" stroke="#000000" stroke-width="0.5" stroke-linejoin="round" stroke-miterlimit="10" x1="72" y1="141.943" x2="76" y2="141.943"/>
<line fill="none" stroke="#000000" stroke-width="0.5" stroke-linejoin="round" stroke-miterlimit="10" x1="518.4" y1="141.943" x2="514.4" y2="141.943"/>
<polyline points="42.886,147.705 46.106,147.705 46.106,136.585 42.606,137.285 42.606,135.485 46.086,134.785 48.066,134.785 
	48.066,147.705 51.286,147.705 51.286,149.365 42.886,149.365 42.886,147.705 "/>
<polyline points="55.266,146.885 57.326,146.885 57.326,149.365 55.266,149.365 55.266,146.885 "/>
<path d="M63.326,147.705h6.88v1.66h-9.26v-1.66c0.74-0.76,1.76-1.8,3.06-3.12c1.28-1.3,2.1-2.14,2.44-2.52
	c0.64-0.7,1.08-1.3,1.32-1.8c0.24-0.48,0.38-0.98,0.38-1.46c0-0.76-0.28-1.4-0.82-1.88s-1.24-0.74-2.12-0.74
	c-0.62,0-1.28,0.12-1.96,0.32c-0.68,0.22-1.42,0.54-2.2,0.98v-2c0.8-0.32,1.54-0.56,2.22-0.72s1.32-0.24,1.9-0.24
	c1.5,0,2.7,0.38,3.6,1.14c0.9,0.76,1.36,1.76,1.36,3.02c0,0.6-0.12,1.18-0.34,1.7c-0.22,0.54-0.62,1.18-1.22,1.9
	c-0.16,0.2-0.68,0.74-1.56,1.64C66.126,144.825,64.906,146.085,63.326,147.705"/>
<g>
	<defs>
		<rect id="SVGID_81_" x="72" y="43.2" width="446.4" height="345.6"/>
	</defs>
	<clipPath id="SVGID_82_">
		<use xlink:href="#SVGID_81_"  overflow="visible"/>
	</clipPath>
	
		<line clip-path="url(#SVGID_82_)" fill="none" stroke="#000000" stroke-width="0.5" stroke-linejoin="round" stroke-miterlimit="10" stroke-dasharray="1,3" x1="72" y1="92.571" x2="518.4" y2="92.571"/>
</g>
<line fill="none" stroke="#000000" stroke-width="0.5" stroke-linejoin="round" stroke-miterlimit="10" x1="72" y1="92.571" x2="76" y2="92.571"/>
<line fill="none" stroke="#000000" stroke-width="0.5" stroke-linejoin="round" stroke-miterlimit="10" x1="518.4" y1="92.571" x2="514.4" y2="92.571"/>
<polyline points="41.996,98.201 45.216,98.201 45.216,87.081 41.716,87.78 41.716,85.98 45.196,85.28 47.176,85.28 47.176,98.201 
	50.396,98.201 50.396,99.86 41.996,99.86 41.996,98.201 "/>
<polyline points="54.375,97.38 56.436,97.38 56.436,99.86 54.375,99.86 54.375,97.38 "/>
<path d="M65.636,85.28h2.48v9.5h2.08v1.64h-2.08v3.44h-1.96v-3.44h-6.58v-1.9L65.636,85.28 M66.155,87l-4.98,7.78h4.98V87"/>
<g>
	<defs>
		<rect id="SVGID_83_" x="72" y="43.2" width="446.4" height="345.6"/>
	</defs>
	<clipPath id="SVGID_84_">
		<use xlink:href="#SVGID_83_"  overflow="visible"/>
	</clipPath>
	
		<line clip-path="url(#SVGID_84_)" fill="none" stroke="#000000" stroke-width="0.5" stroke-linejoin="round" stroke-miterlimit="10" stroke-dasharray="1,3" x1="72" y1="43.2" x2="518.4" y2="43.2"/>
</g>
<line fill="none" stroke="#000000" stroke-width="0.5" stroke-linejoin="round" stroke-miterlimit="10" x1="72" y1="43.2" x2="76" y2="43.2"/>
<line fill="none" stroke="#000000" stroke-width="0.5" stroke-linejoin="round" stroke-miterlimit="10" x1="518.4" y1="43.2" x2="514.4" y2="43.2"/>
<polyline points="42.136,48.821 45.356,48.821 45.356,37.701 41.856,38.401 41.856,36.601 45.336,35.901 47.316,35.901 
	47.316,48.821 50.536,48.821 50.536,50.481 42.136,50.481 42.136,48.821 "/>
<polyline points="54.516,48.001 56.576,48.001 56.576,50.481 54.516,50.481 54.516,48.001 "/>
<path d="M69.256,36.221v1.8c-0.5-0.24-1-0.42-1.5-0.54c-0.52-0.12-1.02-0.18-1.5-0.18c-1.32,0-2.32,0.44-3,1.32
	c-0.68,0.88-1.08,2.22-1.16,3.98c0.38-0.56,0.86-1,1.44-1.3s1.22-0.46,1.92-0.46c1.46,0,2.62,0.46,3.46,1.34
	c0.84,0.88,1.28,2.1,1.28,3.62c0,1.5-0.46,2.7-1.34,3.6c-0.88,0.9-2.06,1.34-3.52,1.34c-1.68,0-2.98-0.64-3.86-1.92
	c-0.9-1.28-1.34-3.16-1.34-5.62c0-2.3,0.54-4.14,1.64-5.5c1.08-1.36,2.56-2.06,4.4-2.06c0.48,0,0.98,0.06,1.5,0.14
	C68.176,35.881,68.696,36.021,69.256,36.221 M65.336,42.401c-0.88,0-1.58,0.32-2.1,0.92s-0.78,1.44-0.78,2.48
	c0,1.06,0.26,1.9,0.78,2.5s1.22,0.9,2.1,0.9c0.88,0,1.58-0.3,2.1-0.9s0.78-1.44,0.78-2.5c0-1.04-0.26-1.88-0.78-2.48
	S66.216,42.401,65.336,42.401"/>
<line fill="none" stroke="#000000" stroke-linecap="square" stroke-linejoin="round" stroke-miterlimit="10" x1="72" y1="43.2" x2="518.4" y2="43.2"/>
<line fill="none" stroke="#000000" stroke-linecap="square" stroke-linejoin="round" stroke-miterlimit="10" x1="518.4" y1="388.8" x2="518.4" y2="43.2"/>
<line fill="none" stroke="#000000" stroke-linecap="square" stroke-linejoin="round" stroke-miterlimit="10" x1="72" y1="388.8" x2="518.4" y2="388.8"/>
<line fill="none" stroke="#000000" stroke-linecap="square" stroke-linejoin="round" stroke-miterlimit="10" x1="72" y1="388.8" x2="72" y2="43.2"/>
<path d="M214.989,15.704h4.872c3.384,0,5.88,0.72,7.464,2.112c1.584,1.416,2.376,3.624,2.376,6.624c0,3.024-0.816,5.232-2.4,6.648
	c-1.584,1.416-4.08,2.112-7.44,2.112h-4.872V15.704 M217.366,17.648v13.608h2.856c2.4,0,4.176-0.528,5.304-1.632
	c1.104-1.104,1.68-2.832,1.68-5.184s-0.576-4.056-1.68-5.16c-1.128-1.08-2.904-1.632-5.304-1.632H217.366"/>
<polyline points="233.47,15.704 236.998,15.704 241.461,27.608 245.95,15.704 249.478,15.704 249.478,33.2 247.174,33.2 
	247.174,17.84 242.662,29.84 240.286,29.84 235.773,17.84 235.773,33.2 233.47,33.2 233.47,15.704 "/>
<path d="M256.558,17.648v6.216h2.976c1.128,0,1.992-0.264,2.568-0.792c0.576-0.528,0.888-1.296,0.888-2.328
	c0-1.008-0.312-1.776-0.888-2.304c-0.576-0.528-1.44-0.792-2.568-0.792H256.558 M262.486,24.992
	c0.504,0.192,1.008,0.552,1.488,1.104c0.48,0.576,0.96,1.344,1.44,2.328l2.4,4.776h-2.544l-2.232-4.488
	c-0.576-1.152-1.152-1.944-1.68-2.328c-0.552-0.384-1.296-0.576-2.232-0.576h-2.568V33.2h-2.376V15.704h5.352
	c1.992,0,3.48,0.432,4.464,1.248c0.984,0.84,1.488,2.112,1.488,3.792c0,1.104-0.264,2.04-0.768,2.76
	C264.19,24.224,263.446,24.728,262.486,24.992"/>
<path d="M286.774,20.456v2.04c-0.624-0.288-1.248-0.528-1.896-0.696c-0.672-0.144-1.344-0.24-2.04-0.24
	c-1.08,0-1.896,0.168-2.424,0.504c-0.528,0.336-0.792,0.816-0.792,1.464c0,0.504,0.192,0.888,0.576,1.176
	c0.384,0.288,1.152,0.576,2.304,0.816l0.744,0.168c1.536,0.336,2.616,0.816,3.264,1.392c0.624,0.6,0.96,1.44,0.96,2.496
	c0,1.224-0.48,2.184-1.44,2.88c-0.96,0.72-2.304,1.056-3.984,1.056c-0.72,0-1.44-0.072-2.208-0.192c-0.768-0.12-1.56-0.312-2.4-0.6
	v-2.232c0.792,0.432,1.584,0.744,2.352,0.936c0.768,0.216,1.536,0.312,2.304,0.312c1.008,0,1.8-0.168,2.352-0.504
	c0.528-0.336,0.816-0.84,0.816-1.488c0-0.576-0.216-1.032-0.6-1.344c-0.384-0.312-1.248-0.624-2.592-0.912l-0.744-0.168
	c-1.344-0.288-2.328-0.72-2.904-1.296c-0.6-0.576-0.888-1.368-0.888-2.4c0-1.224,0.432-2.184,1.296-2.856
	c0.864-0.672,2.112-1.008,3.744-1.008c0.792,0,1.536,0.072,2.256,0.192C285.526,20.072,286.174,20.24,286.774,20.456"/>
<path d="M300.334,26.648c0-1.584-0.336-2.808-0.984-3.72c-0.672-0.912-1.56-1.368-2.688-1.368c-1.152,0-2.04,0.456-2.688,1.368
	c-0.672,0.912-0.984,2.136-0.984,3.72s0.312,2.832,0.984,3.744c0.648,0.912,1.536,1.344,2.688,1.344
	c1.128,0,2.016-0.432,2.688-1.344C299.998,29.48,300.334,28.232,300.334,26.648 M292.989,31.232v6.936h-2.159V20.072h2.159v1.992
	c0.433-0.768,1.009-1.344,1.704-1.728c0.696-0.384,1.536-0.576,2.496-0.576c1.584,0,2.88,0.648,3.889,1.896
	c0.983,1.272,1.487,2.928,1.487,4.992s-0.504,3.744-1.487,4.992c-1.009,1.248-2.305,1.872-3.889,1.872
	c-0.96,0-1.8-0.192-2.496-0.552C293.998,32.6,293.422,32.024,292.989,31.232"/>
<path d="M315.214,25.472c-0.024-1.176-0.36-2.112-0.984-2.832c-0.647-0.696-1.512-1.056-2.568-1.056c-1.199,0-2.159,0.36-2.88,1.032
	c-0.72,0.672-1.151,1.632-1.248,2.856H315.214 M317.374,26.096v1.056h-9.912c0.096,1.488,0.527,2.64,1.344,3.408
	c0.792,0.768,1.896,1.152,3.336,1.152c0.816,0,1.632-0.096,2.4-0.288c0.768-0.192,1.56-0.504,2.327-0.936v2.04
	c-0.768,0.336-1.56,0.6-2.376,0.744c-0.815,0.144-1.655,0.24-2.472,0.24c-2.112,0-3.768-0.6-4.992-1.8
	c-1.224-1.2-1.824-2.856-1.824-4.944c0-2.136,0.576-3.84,1.729-5.112c1.152-1.248,2.736-1.896,4.704-1.896
	c1.776,0,3.168,0.576,4.2,1.704C316.846,22.616,317.374,24.152,317.374,26.096"/>
<path d="M329.974,25.472c-0.024-1.176-0.36-2.112-0.984-2.832c-0.647-0.696-1.512-1.056-2.567-1.056c-1.2,0-2.16,0.36-2.88,1.032
	c-0.721,0.672-1.152,1.632-1.248,2.856H329.974 M332.134,26.096v1.056h-9.912c0.096,1.488,0.528,2.64,1.344,3.408
	c0.792,0.768,1.896,1.152,3.336,1.152c0.816,0,1.632-0.096,2.4-0.288c0.768-0.192,1.56-0.504,2.328-0.936v2.04
	c-0.769,0.336-1.561,0.6-2.376,0.744c-0.816,0.144-1.656,0.24-2.473,0.24c-2.111,0-3.768-0.6-4.991-1.8
	c-1.225-1.2-1.824-2.856-1.824-4.944c0-2.136,0.576-3.84,1.728-5.112c1.152-1.248,2.736-1.896,4.704-1.896
	c1.776,0,3.168,0.576,4.2,1.704C331.605,22.616,332.134,24.152,332.134,26.096"/>
<path d="M336.958,26.648c0,1.584,0.312,2.832,0.96,3.744c0.647,0.912,1.56,1.344,2.712,1.344c1.128,0,2.016-0.432,2.688-1.344
	c0.648-0.912,0.984-2.16,0.984-3.744s-0.336-2.808-0.984-3.72c-0.672-0.912-1.56-1.368-2.688-1.368
	c-1.152,0-2.064,0.456-2.712,1.368C337.27,23.84,336.958,25.064,336.958,26.648 M344.302,22.064V14.96h2.16V33.2h-2.16v-1.968
	c-0.456,0.792-1.032,1.368-1.728,1.728c-0.696,0.36-1.513,0.552-2.473,0.552c-1.584,0-2.88-0.624-3.888-1.872
	s-1.488-2.928-1.488-4.992s0.48-3.72,1.488-4.992c1.008-1.248,2.304-1.896,3.888-1.896c0.96,0,1.776,0.192,2.473,0.576
	C343.27,20.72,343.846,21.296,344.302,22.064"/>
<path d="M350.686,28.016v-7.944h2.16v7.872c0,1.248,0.24,2.16,0.72,2.784c0.48,0.624,1.2,0.936,2.185,0.936
	c1.151,0,2.088-0.36,2.76-1.104s1.008-1.752,1.008-3.048v-7.44h2.16V33.2h-2.16v-2.016c-0.528,0.816-1.152,1.392-1.824,1.776
	c-0.695,0.36-1.487,0.552-2.399,0.552c-1.513,0-2.664-0.456-3.433-1.392C351.069,31.208,350.686,29.84,350.686,28.016"/>
<path d="M375.55,26.648c0-1.584-0.336-2.808-0.984-3.72c-0.672-0.912-1.56-1.368-2.688-1.368c-1.152,0-2.04,0.456-2.688,1.368
	c-0.672,0.912-0.983,2.136-0.983,3.72s0.312,2.832,0.983,3.744c0.648,0.912,1.536,1.344,2.688,1.344
	c1.128,0,2.016-0.432,2.688-1.344C375.214,29.48,375.55,28.232,375.55,26.648 M368.206,31.232v6.936h-2.16V20.072h2.16v1.992
	c0.432-0.768,1.008-1.344,1.704-1.728c0.695-0.384,1.535-0.576,2.496-0.576c1.584,0,2.88,0.648,3.888,1.896
	c0.983,1.272,1.488,2.928,1.488,4.992s-0.505,3.744-1.488,4.992c-1.008,1.248-2.304,1.872-3.888,1.872
	c-0.961,0-1.801-0.192-2.496-0.552C369.214,32.6,368.638,32.024,368.206,31.232"/>
<rect x="187.047" y="304.188" fill="none" stroke="#000000" stroke-linecap="square" stroke-linejoin="round" stroke-miterlimit="10" width="216.307" height="76.612"/>
<line fill="none" stroke="#000000" stroke-width="2" stroke-linejoin="round" stroke-miterlimit="10" stroke-dasharray="6,6" x1="198.247" y1="317.144" x2="220.647" y2="317.144"/>
<g>
	<defs>
		<rect id="SVGID_85_" x="191.997" y="310.894" width="12.5" height="12.5"/>
	</defs>
	<clipPath id="SVGID_86_">
		<use xlink:href="#SVGID_85_"  overflow="visible"/>
	</clipPath>
	<path clip-path="url(#SVGID_86_)" d="M198.247,323.144c1.591,0,3.117-0.632,4.243-1.757c1.125-1.125,1.757-2.651,1.757-4.243
		c0-1.591-0.632-3.117-1.757-4.242c-1.125-1.125-2.652-1.758-4.243-1.758c-1.591,0-3.118,0.633-4.243,1.758
		c-1.125,1.125-1.757,2.651-1.757,4.242c0,1.592,0.632,3.118,1.757,4.243C195.129,322.512,196.656,323.144,198.247,323.144z"/>
	
		<path clip-path="url(#SVGID_86_)" fill="none" stroke="#000000" stroke-width="0.5" stroke-linejoin="round" stroke-miterlimit="10" d="
		M198.247,323.144c1.591,0,3.117-0.632,4.243-1.757c1.125-1.125,1.757-2.651,1.757-4.243c0-1.591-0.632-3.117-1.757-4.242
		c-1.125-1.125-2.652-1.758-4.243-1.758c-1.591,0-3.118,0.633-4.243,1.758c-1.125,1.125-1.757,2.651-1.757,4.242
		c0,1.592,0.632,3.118,1.757,4.243C195.129,322.512,196.656,323.144,198.247,323.144z"/>
</g>
<g>
	<defs>
		<rect id="SVGID_87_" x="214.397" y="310.894" width="12.5" height="12.5"/>
	</defs>
	<clipPath id="SVGID_88_">
		<use xlink:href="#SVGID_87_"  overflow="visible"/>
	</clipPath>
	<path clip-path="url(#SVGID_88_)" d="M220.647,323.144c1.591,0,3.117-0.632,4.243-1.757c1.125-1.125,1.757-2.651,1.757-4.243
		c0-1.591-0.632-3.117-1.757-4.242c-1.125-1.125-2.651-1.758-4.243-1.758s-3.118,0.633-4.243,1.758s-1.757,2.651-1.757,4.242
		c0,1.592,0.632,3.118,1.757,4.243S219.056,323.144,220.647,323.144z"/>
	
		<path clip-path="url(#SVGID_88_)" fill="none" stroke="#000000" stroke-width="0.5" stroke-linejoin="round" stroke-miterlimit="10" d="
		M220.647,323.144c1.591,0,3.117-0.632,4.243-1.757c1.125-1.125,1.757-2.651,1.757-4.243c0-1.591-0.632-3.117-1.757-4.242
		c-1.125-1.125-2.651-1.758-4.243-1.758s-3.118,0.633-4.243,1.758s-1.757,2.651-1.757,4.242c0,1.592,0.632,3.118,1.757,4.243
		S219.056,323.144,220.647,323.144z"/>
</g>
<path d="M246.055,314.328v1.344c-0.416-0.225-0.816-0.384-1.232-0.496S244.007,315,243.591,315c-0.928,0-1.664,0.304-2.176,0.896
	c-0.512,0.592-0.768,1.424-0.768,2.48c0,1.071,0.256,1.903,0.768,2.496c0.512,0.592,1.248,0.88,2.176,0.88
	c0.416,0,0.816-0.048,1.232-0.16s0.816-0.288,1.232-0.512v1.328c-0.416,0.191-0.832,0.336-1.248,0.416
	c-0.432,0.079-0.896,0.128-1.376,0.128c-1.312,0-2.368-0.4-3.136-1.232c-0.784-0.816-1.168-1.936-1.168-3.344
	c0-1.424,0.384-2.544,1.168-3.36c0.784-0.815,1.856-1.231,3.232-1.231c0.448,0,0.88,0.048,1.296,0.144
	S245.655,314.151,246.055,314.328"/>
<path d="M249.415,318.376c0,1.056,0.208,1.888,0.64,2.496c0.432,0.607,1.04,0.896,1.808,0.896c0.752,0,1.344-0.288,1.792-0.896
	c0.432-0.608,0.656-1.44,0.656-2.496c0-1.057-0.224-1.872-0.656-2.48c-0.448-0.607-1.04-0.912-1.792-0.912
	c-0.768,0-1.376,0.305-1.808,0.912C249.623,316.504,249.415,317.319,249.415,318.376 M254.311,315.319v-4.735h1.44v12.16h-1.44
	v-1.312c-0.304,0.528-0.688,0.912-1.152,1.152c-0.464,0.24-1.008,0.368-1.648,0.368c-1.056,0-1.92-0.416-2.592-1.248
	s-0.992-1.952-0.992-3.328s0.32-2.48,0.992-3.328c0.672-0.832,1.536-1.264,2.592-1.264c0.64,0,1.184,0.128,1.648,0.384
	C253.623,314.424,254.007,314.808,254.311,315.319"/>
<polyline points="265.367,325.384 265.367,326.504 257.063,326.504 257.063,325.384 265.367,325.384 "/>
<polyline points="266.711,310.584 268.151,310.584 268.151,322.744 266.711,322.744 266.711,310.584 "/>
<line fill="none" stroke="#000000" stroke-width="2" stroke-linecap="square" stroke-linejoin="round" stroke-miterlimit="10" x1="198.247" y1="341.081" x2="220.647" y2="341.081"/>
<g>
	<defs>
		<rect id="SVGID_89_" x="191.997" y="334.831" width="12.5" height="12.5"/>
	</defs>
	<clipPath id="SVGID_90_">
		<use xlink:href="#SVGID_89_"  overflow="visible"/>
	</clipPath>
	<path clip-path="url(#SVGID_90_)" d="M198.247,347.081c1.591,0,3.117-0.632,4.243-1.757c1.125-1.125,1.757-2.651,1.757-4.243
		c0-1.591-0.632-3.117-1.757-4.242c-1.125-1.125-2.652-1.758-4.243-1.758c-1.591,0-3.118,0.633-4.243,1.758
		c-1.125,1.125-1.757,2.651-1.757,4.242c0,1.592,0.632,3.118,1.757,4.243C195.129,346.449,196.656,347.081,198.247,347.081z"/>
	
		<path clip-path="url(#SVGID_90_)" fill="none" stroke="#000000" stroke-width="0.5" stroke-linejoin="round" stroke-miterlimit="10" d="
		M198.247,347.081c1.591,0,3.117-0.632,4.243-1.757c1.125-1.125,1.757-2.651,1.757-4.243c0-1.591-0.632-3.117-1.757-4.242
		c-1.125-1.125-2.652-1.758-4.243-1.758c-1.591,0-3.118,0.633-4.243,1.758c-1.125,1.125-1.757,2.651-1.757,4.242
		c0,1.592,0.632,3.118,1.757,4.243C195.129,346.449,196.656,347.081,198.247,347.081z"/>
</g>
<g>
	<defs>
		<rect id="SVGID_91_" x="214.397" y="334.831" width="12.5" height="12.5"/>
	</defs>
	<clipPath id="SVGID_92_">
		<use xlink:href="#SVGID_91_"  overflow="visible"/>
	</clipPath>
	<path clip-path="url(#SVGID_92_)" d="M220.647,347.081c1.591,0,3.117-0.632,4.243-1.757c1.125-1.125,1.757-2.651,1.757-4.243
		c0-1.591-0.632-3.117-1.757-4.242c-1.125-1.125-2.651-1.758-4.243-1.758s-3.118,0.633-4.243,1.758s-1.757,2.651-1.757,4.242
		c0,1.592,0.632,3.118,1.757,4.243S219.056,347.081,220.647,347.081z"/>
	
		<path clip-path="url(#SVGID_92_)" fill="none" stroke="#000000" stroke-width="0.5" stroke-linejoin="round" stroke-miterlimit="10" d="
		M220.647,347.081c1.591,0,3.117-0.632,4.243-1.757c1.125-1.125,1.757-2.651,1.757-4.243c0-1.591-0.632-3.117-1.757-4.242
		c-1.125-1.125-2.651-1.758-4.243-1.758s-3.118,0.633-4.243,1.758s-1.757,2.651-1.757,4.242c0,1.592,0.632,3.118,1.757,4.243
		S219.056,347.081,220.647,347.081z"/>
</g>
<path d="M246.055,338.266v1.344c-0.416-0.225-0.816-0.384-1.232-0.496s-0.816-0.176-1.232-0.176c-0.928,0-1.664,0.304-2.176,0.896
	c-0.512,0.592-0.768,1.424-0.768,2.48c0,1.071,0.256,1.903,0.768,2.496c0.512,0.592,1.248,0.88,2.176,0.88
	c0.416,0,0.816-0.048,1.232-0.16s0.816-0.288,1.232-0.512v1.328c-0.416,0.191-0.832,0.336-1.248,0.416
	c-0.432,0.079-0.896,0.128-1.376,0.128c-1.312,0-2.368-0.4-3.136-1.232c-0.784-0.816-1.168-1.936-1.168-3.344
	c0-1.424,0.384-2.544,1.168-3.36c0.784-0.815,1.856-1.231,3.232-1.231c0.448,0,0.88,0.048,1.296,0.144
	S245.655,338.089,246.055,338.266"/>
<path d="M249.415,342.313c0,1.056,0.208,1.888,0.64,2.496c0.432,0.607,1.04,0.896,1.808,0.896c0.752,0,1.344-0.288,1.792-0.896
	c0.432-0.608,0.656-1.44,0.656-2.496c0-1.057-0.224-1.872-0.656-2.48c-0.448-0.607-1.04-0.912-1.792-0.912
	c-0.768,0-1.376,0.305-1.808,0.912C249.623,340.441,249.415,341.257,249.415,342.313 M254.311,339.257v-4.735h1.44v12.16h-1.44
	v-1.312c-0.304,0.528-0.688,0.912-1.152,1.152c-0.464,0.24-1.008,0.368-1.648,0.368c-1.056,0-1.92-0.416-2.592-1.248
	s-0.992-1.952-0.992-3.328s0.32-2.48,0.992-3.328c0.672-0.832,1.536-1.264,2.592-1.264c0.64,0,1.184,0.128,1.648,0.384
	C253.623,338.361,254.007,338.745,254.311,339.257"/>
<polyline points="265.367,349.321 265.367,350.441 257.063,350.441 257.063,349.321 265.367,349.321 "/>
<polyline points="265.687,337.93 267.207,337.93 269.943,345.273 272.679,337.93 274.199,337.93 270.919,346.682 268.967,346.682 
	265.687,337.93 "/>
<line fill="none" stroke="#000000" stroke-width="2" stroke-linejoin="round" stroke-miterlimit="10" stroke-dasharray="6,6" x1="198.247" y1="365.019" x2="220.647" y2="365.019"/>
<polyline points="198.247,359.019 192.247,371.019 204.247,371.019 198.247,359.019 "/>
<polyline fill="none" stroke="#000000" stroke-width="0.5" stroke-linejoin="round" stroke-miterlimit="10" points="
	198.247,359.019 192.247,371.019 204.247,371.019 198.247,359.019 "/>
<polyline points="220.647,359.019 214.647,371.019 226.647,371.019 220.647,359.019 "/>
<polyline fill="none" stroke="#000000" stroke-width="0.5" stroke-linejoin="round" stroke-miterlimit="10" points="
	220.647,359.019 214.647,371.019 226.647,371.019 220.647,359.019 "/>
<path d="M246.055,362.203v1.344c-0.416-0.225-0.816-0.384-1.232-0.496s-0.816-0.176-1.232-0.176c-0.928,0-1.664,0.304-2.176,0.896
	c-0.512,0.592-0.768,1.424-0.768,2.48c0,1.071,0.256,1.903,0.768,2.496c0.512,0.592,1.248,0.88,2.176,0.88
	c0.416,0,0.816-0.048,1.232-0.16s0.816-0.288,1.232-0.512v1.328c-0.416,0.191-0.832,0.336-1.248,0.416
	c-0.432,0.079-0.896,0.128-1.376,0.128c-1.312,0-2.368-0.4-3.136-1.232c-0.784-0.816-1.168-1.936-1.168-3.344
	c0-1.424,0.384-2.544,1.168-3.36c0.784-0.815,1.856-1.231,3.232-1.231c0.448,0,0.88,0.048,1.296,0.144
	S245.655,362.026,246.055,362.203"/>
<path d="M249.975,359.387v2.48h2.96v1.119h-2.96v4.752c0,0.721,0.096,1.185,0.288,1.377c0.192,0.207,0.592,0.304,1.2,0.304h1.472
	v1.2h-1.472c-1.12,0-1.888-0.208-2.304-0.624c-0.416-0.416-0.624-1.168-0.624-2.257v-4.752h-1.056v-1.119h1.056v-2.48H249.975"/>
<path d="M255.687,366.251c0,1.056,0.208,1.888,0.64,2.496c0.432,0.607,1.04,0.896,1.808,0.896c0.752,0,1.344-0.288,1.792-0.896
	c0.432-0.608,0.656-1.44,0.656-2.496c0-1.057-0.224-1.872-0.656-2.48c-0.448-0.607-1.04-0.912-1.792-0.912
	c-0.768,0-1.376,0.305-1.808,0.912C255.895,364.379,255.687,365.194,255.687,366.251 M260.583,363.194v-4.735h1.44v12.16h-1.44
	v-1.312c-0.304,0.528-0.688,0.912-1.152,1.152c-0.464,0.24-1.008,0.368-1.648,0.368c-1.056,0-1.92-0.416-2.592-1.248
	s-0.992-1.952-0.992-3.328s0.32-2.48,0.992-3.328c0.672-0.832,1.536-1.264,2.592-1.264c0.64,0,1.184,0.128,1.648,0.384
	C259.895,362.299,260.279,362.683,260.583,363.194"/>
<polyline points="271.639,373.259 271.639,374.379 263.335,374.379 263.335,373.259 271.639,373.259 "/>
<polyline points="272.983,358.459 274.423,358.459 274.423,370.619 272.983,370.619 272.983,358.459 "/>
<line fill="none" stroke="#000000" stroke-width="2" stroke-linecap="square" stroke-linejoin="round" stroke-miterlimit="10" x1="310.344" y1="317.144" x2="332.744" y2="317.144"/>
<polyline points="310.344,311.144 304.344,323.144 316.344,323.144 310.344,311.144 "/>
<polyline fill="none" stroke="#000000" stroke-width="0.5" stroke-linejoin="round" stroke-miterlimit="10" points="
	310.344,311.144 304.344,323.144 316.344,323.144 310.344,311.144 "/>
<polyline points="332.744,311.144 326.744,323.144 338.744,323.144 332.744,311.144 "/>
<polyline fill="none" stroke="#000000" stroke-width="0.5" stroke-linejoin="round" stroke-miterlimit="10" points="
	332.744,311.144 326.744,323.144 338.744,323.144 332.744,311.144 "/>
<path d="M358.151,314.328v1.344c-0.416-0.225-0.815-0.384-1.231-0.496S356.104,315,355.688,315c-0.928,0-1.664,0.304-2.176,0.896
	s-0.768,1.424-0.768,2.48c0,1.071,0.256,1.903,0.768,2.496c0.512,0.592,1.248,0.88,2.176,0.88c0.416,0,0.816-0.048,1.232-0.16
	s0.815-0.288,1.231-0.512v1.328c-0.416,0.191-0.832,0.336-1.248,0.416c-0.432,0.079-0.896,0.128-1.376,0.128
	c-1.312,0-2.367-0.4-3.136-1.232c-0.784-0.816-1.168-1.936-1.168-3.344c0-1.424,0.384-2.544,1.168-3.36
	c0.784-0.815,1.856-1.231,3.232-1.231c0.447,0,0.88,0.048,1.296,0.144S357.752,314.151,358.151,314.328"/>
<path d="M362.072,311.512v2.48h2.96v1.119h-2.96v4.752c0,0.721,0.096,1.185,0.287,1.377c0.192,0.207,0.593,0.304,1.2,0.304h1.473
	v1.2h-1.473c-1.12,0-1.888-0.208-2.304-0.624s-0.624-1.168-0.624-2.257v-4.752h-1.056v-1.119h1.056v-2.48H362.072"/>
<path d="M367.784,318.376c0,1.056,0.208,1.888,0.64,2.496c0.432,0.607,1.04,0.896,1.808,0.896c0.752,0,1.345-0.288,1.792-0.896
	c0.433-0.608,0.656-1.44,0.656-2.496c0-1.057-0.224-1.872-0.656-2.48c-0.447-0.607-1.04-0.912-1.792-0.912
	c-0.768,0-1.376,0.305-1.808,0.912C367.992,316.504,367.784,317.319,367.784,318.376 M372.68,315.319v-4.735h1.44v12.16h-1.44
	v-1.312c-0.304,0.528-0.688,0.912-1.152,1.152c-0.464,0.24-1.008,0.368-1.647,0.368c-1.056,0-1.92-0.416-2.592-1.248
	s-0.992-1.952-0.992-3.328s0.32-2.48,0.992-3.328c0.672-0.832,1.536-1.264,2.592-1.264c0.64,0,1.184,0.128,1.647,0.384
	C371.992,314.424,372.376,314.808,372.68,315.319"/>
<polyline points="383.735,325.384 383.735,326.504 375.432,326.504 375.432,325.384 383.735,325.384 "/>
<polyline points="384.056,313.992 385.576,313.992 388.312,321.336 391.048,313.992 392.567,313.992 389.288,322.744 
	387.336,322.744 384.056,313.992 "/>
<line fill="none" stroke="#000000" stroke-width="2" stroke-linejoin="round" stroke-miterlimit="10" stroke-dasharray="6,6" x1="310.344" y1="341.081" x2="332.744" y2="341.081"/>
<polyline points="304.344,347.081 316.344,347.081 316.344,335.081 304.344,335.081 304.344,347.081 "/>
<polyline fill="none" stroke="#000000" stroke-width="0.5" stroke-linejoin="round" stroke-miterlimit="10" points="
	304.344,347.081 316.344,347.081 316.344,335.081 304.344,335.081 304.344,347.081 "/>
<polyline points="326.744,347.081 338.744,347.081 338.744,335.081 326.744,335.081 326.744,347.081 "/>
<polyline fill="none" stroke="#000000" stroke-width="0.5" stroke-linejoin="round" stroke-miterlimit="10" points="
	326.744,347.081 338.744,347.081 338.744,335.081 326.744,335.081 326.744,347.081 "/>
<path d="M352.712,342.313c0,1.056,0.208,1.888,0.64,2.496c0.433,0.607,1.04,0.896,1.809,0.896c0.752,0,1.344-0.288,1.792-0.896
	c0.432-0.608,0.655-1.44,0.655-2.496c0-1.057-0.224-1.872-0.655-2.48c-0.448-0.607-1.04-0.912-1.792-0.912
	c-0.769,0-1.376,0.305-1.809,0.912C352.92,340.441,352.712,341.257,352.712,342.313 M357.607,339.257v-4.735h1.44v12.16h-1.44
	v-1.312c-0.304,0.528-0.688,0.912-1.151,1.152s-1.009,0.368-1.648,0.368c-1.056,0-1.92-0.416-2.592-1.248s-0.992-1.952-0.992-3.328
	s0.32-2.48,0.992-3.328c0.672-0.832,1.536-1.264,2.592-1.264c0.64,0,1.185,0.128,1.648,0.384S357.304,338.745,357.607,339.257"/>
<path d="M363.575,345.354h5.505v1.328h-7.408v-1.328c0.592-0.608,1.408-1.44,2.448-2.496c1.023-1.04,1.68-1.712,1.951-2.017
	c0.513-0.56,0.864-1.04,1.057-1.439c0.191-0.384,0.304-0.784,0.304-1.168c0-0.608-0.224-1.12-0.656-1.504
	c-0.432-0.384-0.992-0.592-1.695-0.592c-0.496,0-1.024,0.096-1.568,0.256c-0.544,0.176-1.136,0.432-1.76,0.784v-1.601
	c0.64-0.256,1.231-0.448,1.775-0.576s1.057-0.191,1.521-0.191c1.2,0,2.16,0.304,2.88,0.912c0.72,0.607,1.088,1.407,1.088,2.416
	c0,0.479-0.096,0.943-0.271,1.359c-0.177,0.433-0.496,0.944-0.977,1.521c-0.128,0.16-0.544,0.592-1.248,1.312
	S364.84,344.058,363.575,345.354"/>
<path d="M373.048,342.313c0,1.056,0.208,1.888,0.64,2.496c0.433,0.607,1.04,0.896,1.809,0.896c0.752,0,1.344-0.288,1.792-0.896
	c0.432-0.608,0.655-1.44,0.655-2.496c0-1.057-0.224-1.872-0.655-2.48c-0.448-0.607-1.04-0.912-1.792-0.912
	c-0.769,0-1.376,0.305-1.809,0.912C373.256,340.441,373.048,341.257,373.048,342.313 M377.943,339.257v-4.735h1.44v12.16h-1.44
	v-1.312c-0.304,0.528-0.688,0.912-1.151,1.152s-1.009,0.368-1.648,0.368c-1.056,0-1.92-0.416-2.592-1.248s-0.992-1.952-0.992-3.328
	s0.32-2.48,0.992-3.328c0.672-0.832,1.536-1.264,2.592-1.264c0.64,0,1.185,0.128,1.648,0.384S377.64,338.745,377.943,339.257"/>
<polyline points="389,349.321 389,350.441 380.695,350.441 380.695,349.321 389,349.321 "/>
<polyline points="390.344,334.521 391.783,334.521 391.783,346.682 390.344,346.682 390.344,334.521 "/>
<line fill="none" stroke="#000000" stroke-width="2" stroke-linecap="square" stroke-linejoin="round" stroke-miterlimit="10" x1="310.344" y1="365.019" x2="332.744" y2="365.019"/>
<polyline points="304.344,371.019 316.344,371.019 316.344,359.019 304.344,359.019 304.344,371.019 "/>
<polyline fill="none" stroke="#000000" stroke-width="0.5" stroke-linejoin="round" stroke-miterlimit="10" points="
	304.344,371.019 316.344,371.019 316.344,359.019 304.344,359.019 304.344,371.019 "/>
<polyline points="326.744,371.019 338.744,371.019 338.744,359.019 326.744,359.019 326.744,371.019 "/>
<polyline fill="none" stroke="#000000" stroke-width="0.5" stroke-linejoin="round" stroke-miterlimit="10" points="
	326.744,371.019 338.744,371.019 338.744,359.019 326.744,359.019 326.744,371.019 "/>
<path d="M352.712,366.251c0,1.056,0.208,1.888,0.64,2.496c0.433,0.607,1.04,0.896,1.809,0.896c0.752,0,1.344-0.288,1.792-0.896
	c0.432-0.608,0.655-1.44,0.655-2.496c0-1.057-0.224-1.872-0.655-2.48c-0.448-0.607-1.04-0.912-1.792-0.912
	c-0.769,0-1.376,0.305-1.809,0.912C352.92,364.379,352.712,365.194,352.712,366.251 M357.607,363.194v-4.735h1.44v12.16h-1.44
	v-1.312c-0.304,0.528-0.688,0.912-1.151,1.152s-1.009,0.368-1.648,0.368c-1.056,0-1.92-0.416-2.592-1.248s-0.992-1.952-0.992-3.328
	s0.32-2.48,0.992-3.328c0.672-0.832,1.536-1.264,2.592-1.264c0.64,0,1.185,0.128,1.648,0.384S357.304,362.683,357.607,363.194"/>
<path d="M363.575,369.291h5.505v1.328h-7.408v-1.328c0.592-0.608,1.408-1.44,2.448-2.496c1.023-1.04,1.68-1.712,1.951-2.017
	c0.513-0.56,0.864-1.04,1.057-1.439c0.191-0.384,0.304-0.784,0.304-1.168c0-0.608-0.224-1.12-0.656-1.504
	c-0.432-0.384-0.992-0.592-1.695-0.592c-0.496,0-1.024,0.096-1.568,0.256c-0.544,0.176-1.136,0.432-1.76,0.784v-1.601
	c0.64-0.256,1.231-0.448,1.775-0.576s1.057-0.191,1.521-0.191c1.2,0,2.16,0.304,2.88,0.912c0.72,0.607,1.088,1.407,1.088,2.416
	c0,0.479-0.096,0.943-0.271,1.359c-0.177,0.433-0.496,0.944-0.977,1.521c-0.128,0.16-0.544,0.592-1.248,1.312
	S364.84,367.995,363.575,369.291"/>
<path d="M373.048,366.251c0,1.056,0.208,1.888,0.64,2.496c0.433,0.607,1.04,0.896,1.809,0.896c0.752,0,1.344-0.288,1.792-0.896
	c0.432-0.608,0.655-1.44,0.655-2.496c0-1.057-0.224-1.872-0.655-2.48c-0.448-0.607-1.04-0.912-1.792-0.912
	c-0.769,0-1.376,0.305-1.809,0.912C373.256,364.379,373.048,365.194,373.048,366.251 M377.943,363.194v-4.735h1.44v12.16h-1.44
	v-1.312c-0.304,0.528-0.688,0.912-1.151,1.152s-1.009,0.368-1.648,0.368c-1.056,0-1.92-0.416-2.592-1.248s-0.992-1.952-0.992-3.328
	s0.32-2.48,0.992-3.328c0.672-0.832,1.536-1.264,2.592-1.264c0.64,0,1.185,0.128,1.648,0.384S377.64,362.683,377.943,363.194"/>
<polyline points="389,373.259 389,374.379 380.695,374.379 380.695,373.259 389,373.259 "/>
<polyline points="389.319,361.867 390.84,361.867 393.575,369.211 396.312,361.867 397.832,361.867 394.552,370.619 392.6,370.619 
	389.319,361.867 "/>
</svg>
